<?xml version="1.0" encoding="UTF-8" standalone="no"?>
<!-- Created with Inkscape (http://www.inkscape.org/) -->

<svg
   xmlns:dc="http://purl.org/dc/elements/1.1/"
   xmlns:cc="http://creativecommons.org/ns#"
   xmlns:rdf="http://www.w3.org/1999/02/22-rdf-syntax-ns#"
   xmlns:svg="http://www.w3.org/2000/svg"
   xmlns="http://www.w3.org/2000/svg"
   version="1.2"
   width="744.09448"
   height="1052.3622"
   id="svg2">
  <title
     id="title5694">Process-to-Process Intercommunication Pattern</title>
  <defs
     id="defs4">
    <marker
       refX="0"
       refY="0"
       orient="auto"
       id="Arrow1Lend"
       style="overflow:visible">
      <path
         d="M 0,0 5,-5 -12.5,0 5,5 0,0 z"
         transform="matrix(-0.8,0,0,-0.8,-10,0)"
         id="path5939"
         style="fill-rule:evenodd;stroke:#000000;stroke-width:1pt" />
    </marker>
    <marker
       refX="0"
       refY="0"
       orient="auto"
       id="Arrow1Lstart"
       style="overflow:visible">
      <path
         d="M 0,0 5,-5 -12.5,0 5,5 0,0 z"
         transform="matrix(0.8,0,0,0.8,10,0)"
         id="path5936"
         style="fill-rule:evenodd;stroke:#000000;stroke-width:1pt" />
    </marker>
    <marker
       refX="0"
       refY="0"
       orient="auto"
       id="Arrow1Mend"
       style="overflow:visible">
      <path
         d="M 0,0 5,-5 -12.5,0 5,5 0,0 z"
         transform="matrix(-0.4,0,0,-0.4,-4,0)"
         id="path5945"
         style="fill-rule:evenodd;stroke:#000000;stroke-width:1pt" />
    </marker>
    <marker
       refX="0"
       refY="0"
       orient="auto"
       id="Arrow1Mstart"
       style="overflow:visible">
      <path
         d="M 0,0 5,-5 -12.5,0 5,5 0,0 z"
         transform="matrix(0.4,0,0,0.4,4,0)"
         id="path5942"
         style="fill-rule:evenodd;stroke:#000000;stroke-width:1pt" />
    </marker>
    <marker
       refX="0"
       refY="0"
       orient="auto"
       id="Arrow2MendDcX"
       style="overflow:visible">
      <path
         d="M 8.7185878,4.0337352 -2.2072895,0.01601326 8.7185884,-4.0017078 c -1.7454984,2.3720609 -1.7354408,5.6174519 -6e-7,8.035443 z"
         transform="scale(-0.6,-0.6)"
         id="path7771"
         style="fill:#00ffff;fill-rule:evenodd;stroke:#00ffff;stroke-width:0.625;stroke-linejoin:round" />
    </marker>
    <marker
       refX="0"
       refY="0"
       orient="auto"
       id="Arrow2MendtI"
       style="overflow:visible">
      <path
         d="M 8.7185878,4.0337352 -2.2072895,0.01601326 8.7185884,-4.0017078 c -1.7454984,2.3720609 -1.7354408,5.6174519 -6e-7,8.035443 z"
         transform="scale(-0.6,-0.6)"
         id="path7768"
         style="fill:#00ffff;fill-rule:evenodd;stroke:#00ffff;stroke-width:0.625;stroke-linejoin:round" />
    </marker>
    <marker
       refX="0"
       refY="0"
       orient="auto"
       id="Arrow2Mend9zF"
       style="overflow:visible">
      <path
         d="M 8.7185878,4.0337352 -2.2072895,0.01601326 8.7185884,-4.0017078 c -1.7454984,2.3720609 -1.7354408,5.6174519 -6e-7,8.035443 z"
         transform="scale(-0.6,-0.6)"
         id="path7765"
         style="fill:#00ffff;fill-rule:evenodd;stroke:#00ffff;stroke-width:0.625;stroke-linejoin:round" />
    </marker>
    <marker
       refX="0"
       refY="0"
       orient="auto"
       id="Arrow2MendWi"
       style="overflow:visible">
      <path
         d="M 8.7185878,4.0337352 -2.2072895,0.01601326 8.7185884,-4.0017078 c -1.7454984,2.3720609 -1.7354408,5.6174519 -6e-7,8.035443 z"
         transform="scale(-0.6,-0.6)"
         id="path7762"
         style="fill:#00ffff;fill-rule:evenodd;stroke:#00ffff;stroke-width:0.625;stroke-linejoin:round" />
    </marker>
    <marker
       refX="0"
       refY="0"
       orient="auto"
       id="Arrow2MendIi"
       style="overflow:visible">
      <path
         d="M 8.7185878,4.0337352 -2.2072895,0.01601326 8.7185884,-4.0017078 c -1.7454984,2.3720609 -1.7354408,5.6174519 -6e-7,8.035443 z"
         transform="scale(-0.6,-0.6)"
         id="path7759"
         style="fill:#00ffff;fill-rule:evenodd;stroke:#00ffff;stroke-width:0.625;stroke-linejoin:round" />
    </marker>
    <marker
       refX="0"
       refY="0"
       orient="auto"
       id="Arrow2MendpK"
       style="overflow:visible">
      <path
         d="M 8.7185878,4.0337352 -2.2072895,0.01601326 8.7185884,-4.0017078 c -1.7454984,2.3720609 -1.7354408,5.6174519 -6e-7,8.035443 z"
         transform="scale(-0.6,-0.6)"
         id="path7756"
         style="fill:#00ffff;fill-rule:evenodd;stroke:#00ffff;stroke-width:0.625;stroke-linejoin:round" />
    </marker>
    <marker
       refX="0"
       refY="0"
       orient="auto"
       id="Arrow2MendoH"
       style="overflow:visible">
      <path
         d="M 8.7185878,4.0337352 -2.2072895,0.01601326 8.7185884,-4.0017078 c -1.7454984,2.3720609 -1.7354408,5.6174519 -6e-7,8.035443 z"
         transform="scale(-0.6,-0.6)"
         id="path7753"
         style="fill:#00ffff;fill-rule:evenodd;stroke:#00ffff;stroke-width:0.625;stroke-linejoin:round" />
    </marker>
    <marker
       refX="0"
       refY="0"
       orient="auto"
       id="Arrow2Mend9d"
       style="overflow:visible">
      <path
         d="M 8.7185878,4.0337352 -2.2072895,0.01601326 8.7185884,-4.0017078 c -1.7454984,2.3720609 -1.7354408,5.6174519 -6e-7,8.035443 z"
         transform="scale(-0.6,-0.6)"
         id="path7750"
         style="fill:#00ffff;fill-rule:evenodd;stroke:#00ffff;stroke-width:0.625;stroke-linejoin:round" />
    </marker>
    <marker
       refX="0"
       refY="0"
       orient="auto"
       id="Arrow2Mendg8"
       style="overflow:visible">
      <path
         d="M 8.7185878,4.0337352 -2.2072895,0.01601326 8.7185884,-4.0017078 c -1.7454984,2.3720609 -1.7354408,5.6174519 -6e-7,8.035443 z"
         transform="scale(-0.6,-0.6)"
         id="path7747"
         style="fill:#00ffff;fill-rule:evenodd;stroke:#00ffff;stroke-width:0.625;stroke-linejoin:round" />
    </marker>
    <marker
       refX="0"
       refY="0"
       orient="auto"
       id="Arrow2MendPB"
       style="overflow:visible">
      <path
         d="M 8.7185878,4.0337352 -2.2072895,0.01601326 8.7185884,-4.0017078 c -1.7454984,2.3720609 -1.7354408,5.6174519 -6e-7,8.035443 z"
         transform="scale(-0.6,-0.6)"
         id="path7744"
         style="fill:#00ffff;fill-rule:evenodd;stroke:#00ffff;stroke-width:0.625;stroke-linejoin:round" />
    </marker>
    <marker
       refX="0"
       refY="0"
       orient="auto"
       id="Arrow2MendDW"
       style="overflow:visible">
      <path
         d="M 8.7185878,4.0337352 -2.2072895,0.01601326 8.7185884,-4.0017078 c -1.7454984,2.3720609 -1.7354408,5.6174519 -6e-7,8.035443 z"
         transform="scale(-0.6,-0.6)"
         id="path7741"
         style="fill:#00ffff;fill-rule:evenodd;stroke:#00ffff;stroke-width:0.625;stroke-linejoin:round" />
    </marker>
    <marker
       refX="0"
       refY="0"
       orient="auto"
       id="Arrow2Mendxg"
       style="overflow:visible">
      <path
         d="M 8.7185878,4.0337352 -2.2072895,0.01601326 8.7185884,-4.0017078 c -1.7454984,2.3720609 -1.7354408,5.6174519 -6e-7,8.035443 z"
         transform="scale(-0.6,-0.6)"
         id="path7738"
         style="fill:#00ffff;fill-rule:evenodd;stroke:#00ffff;stroke-width:0.625;stroke-linejoin:round" />
    </marker>
    <marker
       refX="0"
       refY="0"
       orient="auto"
       id="Arrow2MendDc"
       style="overflow:visible">
      <path
         d="M 8.7185878,4.0337352 -2.2072895,0.01601326 8.7185884,-4.0017078 c -1.7454984,2.3720609 -1.7354408,5.6174519 -6e-7,8.035443 z"
         transform="scale(-0.6,-0.6)"
         id="path7059"
         style="fill:#0000ff;fill-rule:evenodd;stroke:#0000ff;stroke-width:0.625;stroke-linejoin:round" />
    </marker>
    <marker
       refX="0"
       refY="0"
       orient="auto"
       id="Arrow2Mendt"
       style="overflow:visible">
      <path
         d="M 8.7185878,4.0337352 -2.2072895,0.01601326 8.7185884,-4.0017078 c -1.7454984,2.3720609 -1.7354408,5.6174519 -6e-7,8.035443 z"
         transform="scale(-0.6,-0.6)"
         id="path7056"
         style="fill:#0000ff;fill-rule:evenodd;stroke:#0000ff;stroke-width:0.625;stroke-linejoin:round" />
    </marker>
    <marker
       refX="0"
       refY="0"
       orient="auto"
       id="Arrow2Mend9z"
       style="overflow:visible">
      <path
         d="M 8.7185878,4.0337352 -2.2072895,0.01601326 8.7185884,-4.0017078 c -1.7454984,2.3720609 -1.7354408,5.6174519 -6e-7,8.035443 z"
         transform="scale(-0.6,-0.6)"
         id="path7053"
         style="fill:#0000ff;fill-rule:evenodd;stroke:#0000ff;stroke-width:0.625;stroke-linejoin:round" />
    </marker>
    <marker
       refX="0"
       refY="0"
       orient="auto"
       id="Arrow2MendW"
       style="overflow:visible">
      <path
         d="M 8.7185878,4.0337352 -2.2072895,0.01601326 8.7185884,-4.0017078 c -1.7454984,2.3720609 -1.7354408,5.6174519 -6e-7,8.035443 z"
         transform="scale(-0.6,-0.6)"
         id="path7050"
         style="fill:#0000ff;fill-rule:evenodd;stroke:#0000ff;stroke-width:0.625;stroke-linejoin:round" />
    </marker>
    <marker
       refX="0"
       refY="0"
       orient="auto"
       id="Arrow2MendI"
       style="overflow:visible">
      <path
         d="M 8.7185878,4.0337352 -2.2072895,0.01601326 8.7185884,-4.0017078 c -1.7454984,2.3720609 -1.7354408,5.6174519 -6e-7,8.035443 z"
         transform="scale(-0.6,-0.6)"
         id="path7047"
         style="fill:#0000ff;fill-rule:evenodd;stroke:#0000ff;stroke-width:0.625;stroke-linejoin:round" />
    </marker>
    <marker
       refX="0"
       refY="0"
       orient="auto"
       id="Arrow2Mendp"
       style="overflow:visible">
      <path
         d="M 8.7185878,4.0337352 -2.2072895,0.01601326 8.7185884,-4.0017078 c -1.7454984,2.3720609 -1.7354408,5.6174519 -6e-7,8.035443 z"
         transform="scale(-0.6,-0.6)"
         id="path7044"
         style="fill:#0000ff;fill-rule:evenodd;stroke:#0000ff;stroke-width:0.625;stroke-linejoin:round" />
    </marker>
    <marker
       refX="0"
       refY="0"
       orient="auto"
       id="Arrow2Mendo"
       style="overflow:visible">
      <path
         d="M 8.7185878,4.0337352 -2.2072895,0.01601326 8.7185884,-4.0017078 c -1.7454984,2.3720609 -1.7354408,5.6174519 -6e-7,8.035443 z"
         transform="scale(-0.6,-0.6)"
         id="path7041"
         style="fill:#0000ff;fill-rule:evenodd;stroke:#0000ff;stroke-width:0.625;stroke-linejoin:round" />
    </marker>
    <marker
       refX="0"
       refY="0"
       orient="auto"
       id="Arrow2Mend9"
       style="overflow:visible">
      <path
         d="M 8.7185878,4.0337352 -2.2072895,0.01601326 8.7185884,-4.0017078 c -1.7454984,2.3720609 -1.7354408,5.6174519 -6e-7,8.035443 z"
         transform="scale(-0.6,-0.6)"
         id="path7038"
         style="fill:#0000ff;fill-rule:evenodd;stroke:#0000ff;stroke-width:0.625;stroke-linejoin:round" />
    </marker>
    <marker
       refX="0"
       refY="0"
       orient="auto"
       id="Arrow2Mendg"
       style="overflow:visible">
      <path
         d="M 8.7185878,4.0337352 -2.2072895,0.01601326 8.7185884,-4.0017078 c -1.7454984,2.3720609 -1.7354408,5.6174519 -6e-7,8.035443 z"
         transform="scale(-0.6,-0.6)"
         id="path7035"
         style="fill:#0000ff;fill-rule:evenodd;stroke:#0000ff;stroke-width:0.625;stroke-linejoin:round" />
    </marker>
    <marker
       refX="0"
       refY="0"
       orient="auto"
       id="Arrow2MendP"
       style="overflow:visible">
      <path
         d="M 8.7185878,4.0337352 -2.2072895,0.01601326 8.7185884,-4.0017078 c -1.7454984,2.3720609 -1.7354408,5.6174519 -6e-7,8.035443 z"
         transform="scale(-0.6,-0.6)"
         id="path7032"
         style="fill:#0000ff;fill-rule:evenodd;stroke:#0000ff;stroke-width:0.625;stroke-linejoin:round" />
    </marker>
    <marker
       refX="0"
       refY="0"
       orient="auto"
       id="Arrow2MendD"
       style="overflow:visible">
      <path
         d="M 8.7185878,4.0337352 -2.2072895,0.01601326 8.7185884,-4.0017078 c -1.7454984,2.3720609 -1.7354408,5.6174519 -6e-7,8.035443 z"
         transform="scale(-0.6,-0.6)"
         id="path7029"
         style="fill:#0000ff;fill-rule:evenodd;stroke:#0000ff;stroke-width:0.625;stroke-linejoin:round" />
    </marker>
    <marker
       refX="0"
       refY="0"
       orient="auto"
       id="Arrow2Mendx"
       style="overflow:visible">
      <path
         d="M 8.7185878,4.0337352 -2.2072895,0.01601326 8.7185884,-4.0017078 c -1.7454984,2.3720609 -1.7354408,5.6174519 -6e-7,8.035443 z"
         transform="scale(-0.6,-0.6)"
         id="path7026"
         style="fill:#0000ff;fill-rule:evenodd;stroke:#0000ff;stroke-width:0.625;stroke-linejoin:round" />
    </marker>
    <marker
       refX="0"
       refY="0"
       orient="auto"
       id="Arrow2Mendj"
       style="overflow:visible">
      <path
         d="M 8.7185878,4.0337352 -2.2072895,0.01601326 8.7185884,-4.0017078 c -1.7454984,2.3720609 -1.7354408,5.6174519 -6e-7,8.035443 z"
         transform="scale(-0.6,-0.6)"
         id="path6639"
         style="fill:#ff0000;fill-rule:evenodd;stroke:#ff0000;stroke-width:0.625;stroke-linejoin:round" />
    </marker>
    <marker
       refX="0"
       refY="0"
       orient="auto"
       id="Arrow2MendOc"
       style="overflow:visible">
      <path
         d="M 8.7185878,4.0337352 -2.2072895,0.01601326 8.7185884,-4.0017078 c -1.7454984,2.3720609 -1.7354408,5.6174519 -6e-7,8.035443 z"
         transform="scale(-0.6,-0.6)"
         id="path6636"
         style="fill:#ff0000;fill-rule:evenodd;stroke:#ff0000;stroke-width:0.625;stroke-linejoin:round" />
    </marker>
    <marker
       refX="0"
       refY="0"
       orient="auto"
       id="Arrow2MendO"
       style="overflow:visible">
      <path
         d="M 8.7185878,4.0337352 -2.2072895,0.01601326 8.7185884,-4.0017078 c -1.7454984,2.3720609 -1.7354408,5.6174519 -6e-7,8.035443 z"
         transform="scale(-0.6,-0.6)"
         id="path6633"
         style="fill:#ff0000;fill-rule:evenodd;stroke:#ff0000;stroke-width:0.625;stroke-linejoin:round" />
    </marker>
    <marker
       refX="0"
       refY="0"
       orient="auto"
       id="Arrow2MendM"
       style="overflow:visible">
      <path
         d="M 8.7185878,4.0337352 -2.2072895,0.01601326 8.7185884,-4.0017078 c -1.7454984,2.3720609 -1.7354408,5.6174519 -6e-7,8.035443 z"
         transform="scale(-0.6,-0.6)"
         id="path6630"
         style="fill:#ff0000;fill-rule:evenodd;stroke:#ff0000;stroke-width:0.625;stroke-linejoin:round" />
    </marker>
    <marker
       refX="0"
       refY="0"
       orient="auto"
       id="Arrow2MendA"
       style="overflow:visible">
      <path
         d="M 8.7185878,4.0337352 -2.2072895,0.01601326 8.7185884,-4.0017078 c -1.7454984,2.3720609 -1.7354408,5.6174519 -6e-7,8.035443 z"
         transform="scale(-0.6,-0.6)"
         id="path6627"
         style="fill:#ff0000;fill-rule:evenodd;stroke:#ff0000;stroke-width:0.625;stroke-linejoin:round" />
    </marker>
    <marker
       refX="0"
       refY="0"
       orient="auto"
       id="Arrow2MendX"
       style="overflow:visible">
      <path
         d="M 8.7185878,4.0337352 -2.2072895,0.01601326 8.7185884,-4.0017078 c -1.7454984,2.3720609 -1.7354408,5.6174519 -6e-7,8.035443 z"
         transform="scale(-0.6,-0.6)"
         id="path6624"
         style="fill:#ff0000;fill-rule:evenodd;stroke:#ff0000;stroke-width:0.625;stroke-linejoin:round" />
    </marker>
    <marker
       refX="0"
       refY="0"
       orient="auto"
       id="Arrow2Mend"
       style="overflow:visible">
      <path
         d="M 8.7185878,4.0337352 -2.2072895,0.01601326 8.7185884,-4.0017078 c -1.7454984,2.3720609 -1.7354408,5.6174519 -6e-7,8.035443 z"
         transform="scale(-0.6,-0.6)"
         id="path4057"
         style="fill-rule:evenodd;stroke-width:0.625;stroke-linejoin:round" />
    </marker>
    <marker
       refX="0"
       refY="0"
       orient="auto"
       id="Arrow1Mstart-6"
       style="overflow:visible">
      <path
         d="M 0,0 5,-5 -12.5,0 5,5 0,0 z"
         transform="matrix(0.4,0,0,0.4,4,0)"
         id="path5942-3"
         style="fill-rule:evenodd;stroke:#000000;stroke-width:1pt" />
    </marker>
    <marker
       refX="0"
       refY="0"
       orient="auto"
       id="Arrow1Mend-6"
       style="overflow:visible">
      <path
         d="M 0,0 5,-5 -12.5,0 5,5 0,0 z"
         transform="matrix(-0.4,0,0,-0.4,-4,0)"
         id="path5945-1"
         style="fill-rule:evenodd;stroke:#000000;stroke-width:1pt" />
    </marker>
    <marker
       refX="0"
       refY="0"
       orient="auto"
       id="Arrow1Mstart-4"
       style="overflow:visible">
      <path
         d="M 0,0 5,-5 -12.5,0 5,5 0,0 z"
         transform="matrix(0.4,0,0,0.4,4,0)"
         id="path5942-2"
         style="fill-rule:evenodd;stroke:#000000;stroke-width:1pt" />
    </marker>
    <marker
       refX="0"
       refY="0"
       orient="auto"
       id="Arrow1Mend-0"
       style="overflow:visible">
      <path
         d="M 0,0 5,-5 -12.5,0 5,5 0,0 z"
         transform="matrix(-0.4,0,0,-0.4,-4,0)"
         id="path5945-9"
         style="fill-rule:evenodd;stroke:#000000;stroke-width:1pt" />
    </marker>
    <marker
       refX="0"
       refY="0"
       orient="auto"
       id="Arrow1Mstart-3"
       style="overflow:visible">
      <path
         d="M 0,0 5,-5 -12.5,0 5,5 0,0 z"
         transform="matrix(0.4,0,0,0.4,4,0)"
         id="path5942-7"
         style="fill-rule:evenodd;stroke:#000000;stroke-width:1pt" />
    </marker>
    <marker
       refX="0"
       refY="0"
       orient="auto"
       id="Arrow1Mend-2"
       style="overflow:visible">
      <path
         d="M 0,0 5,-5 -12.5,0 5,5 0,0 z"
         transform="matrix(-0.4,0,0,-0.4,-4,0)"
         id="path5945-6"
         style="fill-rule:evenodd;stroke:#000000;stroke-width:1pt" />
    </marker>
    <marker
       refX="0"
       refY="0"
       orient="auto"
       id="Arrow1Mstart-1"
       style="overflow:visible">
      <path
         d="M 0,0 5,-5 -12.5,0 5,5 0,0 z"
         transform="matrix(0.4,0,0,0.4,4,0)"
         id="path5942-6"
         style="fill-rule:evenodd;stroke:#000000;stroke-width:1pt" />
    </marker>
    <marker
       refX="0"
       refY="0"
       orient="auto"
       id="Arrow1Mend-5"
       style="overflow:visible">
      <path
         d="M 0,0 5,-5 -12.5,0 5,5 0,0 z"
         transform="matrix(-0.4,0,0,-0.4,-4,0)"
         id="path5945-7"
         style="fill-rule:evenodd;stroke:#000000;stroke-width:1pt" />
    </marker>
    <marker
       refX="0"
       refY="0"
       orient="auto"
       id="Arrow1Mstart-41"
       style="overflow:visible">
      <path
         d="M 0,0 5,-5 -12.5,0 5,5 0,0 z"
         transform="matrix(0.4,0,0,0.4,4,0)"
         id="path5942-20"
         style="fill-rule:evenodd;stroke:#000000;stroke-width:1pt" />
    </marker>
    <marker
       refX="0"
       refY="0"
       orient="auto"
       id="Arrow1Mend-01"
       style="overflow:visible">
      <path
         d="M 0,0 5,-5 -12.5,0 5,5 0,0 z"
         transform="matrix(-0.4,0,0,-0.4,-4,0)"
         id="path5945-4"
         style="fill-rule:evenodd;stroke:#000000;stroke-width:1pt" />
    </marker>
    <marker
       refX="0"
       refY="0"
       orient="auto"
       id="Arrow1Lstart-0"
       style="overflow:visible">
      <path
         d="M 0,0 5,-5 -12.5,0 5,5 0,0 z"
         transform="matrix(0.8,0,0,0.8,10,0)"
         id="path5936-7"
         style="fill-rule:evenodd;stroke:#000000;stroke-width:1pt" />
    </marker>
    <marker
       refX="0"
       refY="0"
       orient="auto"
       id="Arrow1Lend-1"
       style="overflow:visible">
      <path
         d="M 0,0 5,-5 -12.5,0 5,5 0,0 z"
         transform="matrix(-0.8,0,0,-0.8,-10,0)"
         id="path5939-7"
         style="fill-rule:evenodd;stroke:#000000;stroke-width:1pt" />
    </marker>
    <marker
       refX="0"
       refY="0"
       orient="auto"
       id="Arrow1Lstart-7"
       style="overflow:visible">
      <path
         d="M 0,0 5,-5 -12.5,0 5,5 0,0 z"
         transform="matrix(0.8,0,0,0.8,10,0)"
         id="path5936-73"
         style="fill-rule:evenodd;stroke:#000000;stroke-width:1pt" />
    </marker>
    <marker
       refX="0"
       refY="0"
       orient="auto"
       id="Arrow1Lend-3"
       style="overflow:visible">
      <path
         d="M 0,0 5,-5 -12.5,0 5,5 0,0 z"
         transform="matrix(-0.8,0,0,-0.8,-10,0)"
         id="path5939-5"
         style="fill-rule:evenodd;stroke:#000000;stroke-width:1pt" />
    </marker>
    <marker
       refX="0"
       refY="0"
       orient="auto"
       id="Arrow1Mstart-41-9"
       style="overflow:visible">
      <path
         d="M 0,0 5,-5 -12.5,0 5,5 0,0 z"
         transform="matrix(0.4,0,0,0.4,4,0)"
         id="path5942-20-4"
         style="fill-rule:evenodd;stroke:#000000;stroke-width:1pt" />
    </marker>
    <marker
       refX="0"
       refY="0"
       orient="auto"
       id="Arrow1Mend-01-8"
       style="overflow:visible">
      <path
         d="M 0,0 5,-5 -12.5,0 5,5 0,0 z"
         transform="matrix(-0.4,0,0,-0.4,-4,0)"
         id="path5945-4-8"
         style="fill-rule:evenodd;stroke:#000000;stroke-width:1pt" />
    </marker>
    <marker
       refX="0"
       refY="0"
       orient="auto"
       id="Arrow1Lend-3-0"
       style="overflow:visible">
      <path
         d="M 0,0 5,-5 -12.5,0 5,5 0,0 z"
         transform="matrix(-0.8,0,0,-0.8,-10,0)"
         id="path5939-5-9"
         style="fill-rule:evenodd;stroke:#000000;stroke-width:1pt" />
    </marker>
    <marker
       refX="0"
       refY="0"
       orient="auto"
       id="Arrow1Lstart-7-4"
       style="overflow:visible">
      <path
         d="M 0,0 5,-5 -12.5,0 5,5 0,0 z"
         transform="matrix(0.8,0,0,0.8,10,0)"
         id="path5936-73-2"
         style="fill-rule:evenodd;stroke:#000000;stroke-width:1pt" />
    </marker>
    <marker
       refX="0"
       refY="0"
       orient="auto"
       id="Arrow1Lend-1-1"
       style="overflow:visible">
      <path
         d="M 0,0 5,-5 -12.5,0 5,5 0,0 z"
         transform="matrix(-0.8,0,0,-0.8,-10,0)"
         id="path5939-7-5"
         style="fill-rule:evenodd;stroke:#000000;stroke-width:1pt" />
    </marker>
    <marker
       refX="0"
       refY="0"
       orient="auto"
       id="Arrow1Lstart-0-3"
       style="overflow:visible">
      <path
         d="M 0,0 5,-5 -12.5,0 5,5 0,0 z"
         transform="matrix(0.8,0,0,0.8,10,0)"
         id="path5936-7-6"
         style="fill-rule:evenodd;stroke:#000000;stroke-width:1pt" />
    </marker>
    <marker
       refX="0"
       refY="0"
       orient="auto"
       id="Arrow1Mend-01-7"
       style="overflow:visible">
      <path
         d="M 0,0 5,-5 -12.5,0 5,5 0,0 z"
         transform="matrix(-0.4,0,0,-0.4,-4,0)"
         id="path5945-4-6"
         style="fill-rule:evenodd;stroke:#000000;stroke-width:1pt" />
    </marker>
    <marker
       refX="0"
       refY="0"
       orient="auto"
       id="Arrow1Mstart-41-98"
       style="overflow:visible">
      <path
         d="M 0,0 5,-5 -12.5,0 5,5 0,0 z"
         transform="matrix(0.4,0,0,0.4,4,0)"
         id="path5942-20-40"
         style="fill-rule:evenodd;stroke:#000000;stroke-width:1pt" />
    </marker>
    <marker
       refX="0"
       refY="0"
       orient="auto"
       id="Arrow1Mend-5-3"
       style="overflow:visible">
      <path
         d="M 0,0 5,-5 -12.5,0 5,5 0,0 z"
         transform="matrix(-0.4,0,0,-0.4,-4,0)"
         id="path5945-7-5"
         style="fill-rule:evenodd;stroke:#000000;stroke-width:1pt" />
    </marker>
    <marker
       refX="0"
       refY="0"
       orient="auto"
       id="Arrow1Mstart-1-9"
       style="overflow:visible">
      <path
         d="M 0,0 5,-5 -12.5,0 5,5 0,0 z"
         transform="matrix(0.4,0,0,0.4,4,0)"
         id="path5942-6-1"
         style="fill-rule:evenodd;stroke:#000000;stroke-width:1pt" />
    </marker>
    <marker
       refX="0"
       refY="0"
       orient="auto"
       id="Arrow1Mend-2-8"
       style="overflow:visible">
      <path
         d="M 0,0 5,-5 -12.5,0 5,5 0,0 z"
         transform="matrix(-0.4,0,0,-0.4,-4,0)"
         id="path5945-6-2"
         style="fill-rule:evenodd;stroke:#000000;stroke-width:1pt" />
    </marker>
    <marker
       refX="0"
       refY="0"
       orient="auto"
       id="Arrow1Mstart-3-7"
       style="overflow:visible">
      <path
         d="M 0,0 5,-5 -12.5,0 5,5 0,0 z"
         transform="matrix(0.4,0,0,0.4,4,0)"
         id="path5942-7-8"
         style="fill-rule:evenodd;stroke:#000000;stroke-width:1pt" />
    </marker>
    <marker
       refX="0"
       refY="0"
       orient="auto"
       id="Arrow1Mend-0-6"
       style="overflow:visible">
      <path
         d="M 0,0 5,-5 -12.5,0 5,5 0,0 z"
         transform="matrix(-0.4,0,0,-0.4,-4,0)"
         id="path5945-9-3"
         style="fill-rule:evenodd;stroke:#000000;stroke-width:1pt" />
    </marker>
    <marker
       refX="0"
       refY="0"
       orient="auto"
       id="Arrow1Mstart-4-4"
       style="overflow:visible">
      <path
         d="M 0,0 5,-5 -12.5,0 5,5 0,0 z"
         transform="matrix(0.4,0,0,0.4,4,0)"
         id="path5942-2-9"
         style="fill-rule:evenodd;stroke:#000000;stroke-width:1pt" />
    </marker>
    <marker
       refX="0"
       refY="0"
       orient="auto"
       id="Arrow1Mend-6-1"
       style="overflow:visible">
      <path
         d="M 0,0 5,-5 -12.5,0 5,5 0,0 z"
         transform="matrix(-0.4,0,0,-0.4,-4,0)"
         id="path5945-1-8"
         style="fill-rule:evenodd;stroke:#000000;stroke-width:1pt" />
    </marker>
    <marker
       refX="0"
       refY="0"
       orient="auto"
       id="Arrow1Mstart-6-6"
       style="overflow:visible">
      <path
         d="M 0,0 5,-5 -12.5,0 5,5 0,0 z"
         transform="matrix(0.4,0,0,0.4,4,0)"
         id="path5942-3-6"
         style="fill-rule:evenodd;stroke:#000000;stroke-width:1pt" />
    </marker>
    <marker
       refX="0"
       refY="0"
       orient="auto"
       id="Arrow2Mend-6"
       style="overflow:visible">
      <path
         d="M 8.7185878,4.0337352 -2.2072895,0.01601326 8.7185884,-4.0017078 c -1.7454984,2.3720609 -1.7354408,5.6174519 -6e-7,8.035443 z"
         transform="scale(-0.6,-0.6)"
         id="path4057-0"
         style="fill-rule:evenodd;stroke-width:0.625;stroke-linejoin:round" />
    </marker>
    <marker
       refX="0"
       refY="0"
       orient="auto"
       id="Arrow2MendX-4"
       style="overflow:visible">
      <path
         d="M 8.7185878,4.0337352 -2.2072895,0.01601326 8.7185884,-4.0017078 c -1.7454984,2.3720609 -1.7354408,5.6174519 -6e-7,8.035443 z"
         transform="scale(-0.6,-0.6)"
         id="path6624-4"
         style="fill:#ff0000;fill-rule:evenodd;stroke:#ff0000;stroke-width:0.625;stroke-linejoin:round" />
    </marker>
    <marker
       refX="0"
       refY="0"
       orient="auto"
       id="Arrow2MendA-9"
       style="overflow:visible">
      <path
         d="M 8.7185878,4.0337352 -2.2072895,0.01601326 8.7185884,-4.0017078 c -1.7454984,2.3720609 -1.7354408,5.6174519 -6e-7,8.035443 z"
         transform="scale(-0.6,-0.6)"
         id="path6627-3"
         style="fill:#ff0000;fill-rule:evenodd;stroke:#ff0000;stroke-width:0.625;stroke-linejoin:round" />
    </marker>
    <marker
       refX="0"
       refY="0"
       orient="auto"
       id="Arrow2MendM-3"
       style="overflow:visible">
      <path
         d="M 8.7185878,4.0337352 -2.2072895,0.01601326 8.7185884,-4.0017078 c -1.7454984,2.3720609 -1.7354408,5.6174519 -6e-7,8.035443 z"
         transform="scale(-0.6,-0.6)"
         id="path6630-8"
         style="fill:#ff0000;fill-rule:evenodd;stroke:#ff0000;stroke-width:0.625;stroke-linejoin:round" />
    </marker>
    <marker
       refX="0"
       refY="0"
       orient="auto"
       id="Arrow2MendO-6"
       style="overflow:visible">
      <path
         d="M 8.7185878,4.0337352 -2.2072895,0.01601326 8.7185884,-4.0017078 c -1.7454984,2.3720609 -1.7354408,5.6174519 -6e-7,8.035443 z"
         transform="scale(-0.6,-0.6)"
         id="path6633-1"
         style="fill:#ff0000;fill-rule:evenodd;stroke:#ff0000;stroke-width:0.625;stroke-linejoin:round" />
    </marker>
    <marker
       refX="0"
       refY="0"
       orient="auto"
       id="Arrow2MendOc-0"
       style="overflow:visible">
      <path
         d="M 8.7185878,4.0337352 -2.2072895,0.01601326 8.7185884,-4.0017078 c -1.7454984,2.3720609 -1.7354408,5.6174519 -6e-7,8.035443 z"
         transform="scale(-0.6,-0.6)"
         id="path6636-0"
         style="fill:#ff0000;fill-rule:evenodd;stroke:#ff0000;stroke-width:0.625;stroke-linejoin:round" />
    </marker>
    <marker
       refX="0"
       refY="0"
       orient="auto"
       id="Arrow2Mendj-0"
       style="overflow:visible">
      <path
         d="M 8.7185878,4.0337352 -2.2072895,0.01601326 8.7185884,-4.0017078 c -1.7454984,2.3720609 -1.7354408,5.6174519 -6e-7,8.035443 z"
         transform="scale(-0.6,-0.6)"
         id="path6639-9"
         style="fill:#ff0000;fill-rule:evenodd;stroke:#ff0000;stroke-width:0.625;stroke-linejoin:round" />
    </marker>
    <marker
       refX="0"
       refY="0"
       orient="auto"
       id="Arrow2Mendx-6"
       style="overflow:visible">
      <path
         d="M 8.7185878,4.0337352 -2.2072895,0.01601326 8.7185884,-4.0017078 c -1.7454984,2.3720609 -1.7354408,5.6174519 -6e-7,8.035443 z"
         transform="scale(-0.6,-0.6)"
         id="path7026-5"
         style="fill:#0000ff;fill-rule:evenodd;stroke:#0000ff;stroke-width:0.625;stroke-linejoin:round" />
    </marker>
    <marker
       refX="0"
       refY="0"
       orient="auto"
       id="Arrow2MendD-4"
       style="overflow:visible">
      <path
         d="M 8.7185878,4.0337352 -2.2072895,0.01601326 8.7185884,-4.0017078 c -1.7454984,2.3720609 -1.7354408,5.6174519 -6e-7,8.035443 z"
         transform="scale(-0.6,-0.6)"
         id="path7029-8"
         style="fill:#0000ff;fill-rule:evenodd;stroke:#0000ff;stroke-width:0.625;stroke-linejoin:round" />
    </marker>
    <marker
       refX="0"
       refY="0"
       orient="auto"
       id="Arrow2MendP-0"
       style="overflow:visible">
      <path
         d="M 8.7185878,4.0337352 -2.2072895,0.01601326 8.7185884,-4.0017078 c -1.7454984,2.3720609 -1.7354408,5.6174519 -6e-7,8.035443 z"
         transform="scale(-0.6,-0.6)"
         id="path7032-2"
         style="fill:#0000ff;fill-rule:evenodd;stroke:#0000ff;stroke-width:0.625;stroke-linejoin:round" />
    </marker>
    <marker
       refX="0"
       refY="0"
       orient="auto"
       id="Arrow2Mendg-8"
       style="overflow:visible">
      <path
         d="M 8.7185878,4.0337352 -2.2072895,0.01601326 8.7185884,-4.0017078 c -1.7454984,2.3720609 -1.7354408,5.6174519 -6e-7,8.035443 z"
         transform="scale(-0.6,-0.6)"
         id="path7035-6"
         style="fill:#0000ff;fill-rule:evenodd;stroke:#0000ff;stroke-width:0.625;stroke-linejoin:round" />
    </marker>
    <marker
       refX="0"
       refY="0"
       orient="auto"
       id="Arrow2Mend9-0"
       style="overflow:visible">
      <path
         d="M 8.7185878,4.0337352 -2.2072895,0.01601326 8.7185884,-4.0017078 c -1.7454984,2.3720609 -1.7354408,5.6174519 -6e-7,8.035443 z"
         transform="scale(-0.6,-0.6)"
         id="path7038-2"
         style="fill:#0000ff;fill-rule:evenodd;stroke:#0000ff;stroke-width:0.625;stroke-linejoin:round" />
    </marker>
    <marker
       refX="0"
       refY="0"
       orient="auto"
       id="Arrow2Mendo-6"
       style="overflow:visible">
      <path
         d="M 8.7185878,4.0337352 -2.2072895,0.01601326 8.7185884,-4.0017078 c -1.7454984,2.3720609 -1.7354408,5.6174519 -6e-7,8.035443 z"
         transform="scale(-0.6,-0.6)"
         id="path7041-5"
         style="fill:#0000ff;fill-rule:evenodd;stroke:#0000ff;stroke-width:0.625;stroke-linejoin:round" />
    </marker>
    <marker
       refX="0"
       refY="0"
       orient="auto"
       id="Arrow2Mendp-9"
       style="overflow:visible">
      <path
         d="M 8.7185878,4.0337352 -2.2072895,0.01601326 8.7185884,-4.0017078 c -1.7454984,2.3720609 -1.7354408,5.6174519 -6e-7,8.035443 z"
         transform="scale(-0.6,-0.6)"
         id="path7044-8"
         style="fill:#0000ff;fill-rule:evenodd;stroke:#0000ff;stroke-width:0.625;stroke-linejoin:round" />
    </marker>
    <marker
       refX="0"
       refY="0"
       orient="auto"
       id="Arrow2MendI-3"
       style="overflow:visible">
      <path
         d="M 8.7185878,4.0337352 -2.2072895,0.01601326 8.7185884,-4.0017078 c -1.7454984,2.3720609 -1.7354408,5.6174519 -6e-7,8.035443 z"
         transform="scale(-0.6,-0.6)"
         id="path7047-1"
         style="fill:#0000ff;fill-rule:evenodd;stroke:#0000ff;stroke-width:0.625;stroke-linejoin:round" />
    </marker>
    <marker
       refX="0"
       refY="0"
       orient="auto"
       id="Arrow2MendW-7"
       style="overflow:visible">
      <path
         d="M 8.7185878,4.0337352 -2.2072895,0.01601326 8.7185884,-4.0017078 c -1.7454984,2.3720609 -1.7354408,5.6174519 -6e-7,8.035443 z"
         transform="scale(-0.6,-0.6)"
         id="path7050-9"
         style="fill:#0000ff;fill-rule:evenodd;stroke:#0000ff;stroke-width:0.625;stroke-linejoin:round" />
    </marker>
    <marker
       refX="0"
       refY="0"
       orient="auto"
       id="Arrow2Mend9z-2"
       style="overflow:visible">
      <path
         d="M 8.7185878,4.0337352 -2.2072895,0.01601326 8.7185884,-4.0017078 c -1.7454984,2.3720609 -1.7354408,5.6174519 -6e-7,8.035443 z"
         transform="scale(-0.6,-0.6)"
         id="path7053-7"
         style="fill:#0000ff;fill-rule:evenodd;stroke:#0000ff;stroke-width:0.625;stroke-linejoin:round" />
    </marker>
    <marker
       refX="0"
       refY="0"
       orient="auto"
       id="Arrow2Mendt-7"
       style="overflow:visible">
      <path
         d="M 8.7185878,4.0337352 -2.2072895,0.01601326 8.7185884,-4.0017078 c -1.7454984,2.3720609 -1.7354408,5.6174519 -6e-7,8.035443 z"
         transform="scale(-0.6,-0.6)"
         id="path7056-4"
         style="fill:#0000ff;fill-rule:evenodd;stroke:#0000ff;stroke-width:0.625;stroke-linejoin:round" />
    </marker>
    <marker
       refX="0"
       refY="0"
       orient="auto"
       id="Arrow2MendDc-3"
       style="overflow:visible">
      <path
         d="M 8.7185878,4.0337352 -2.2072895,0.01601326 8.7185884,-4.0017078 c -1.7454984,2.3720609 -1.7354408,5.6174519 -6e-7,8.035443 z"
         transform="scale(-0.6,-0.6)"
         id="path7059-8"
         style="fill:#0000ff;fill-rule:evenodd;stroke:#0000ff;stroke-width:0.625;stroke-linejoin:round" />
    </marker>
    <marker
       refX="0"
       refY="0"
       orient="auto"
       id="Arrow2Mendxg-1"
       style="overflow:visible">
      <path
         d="M 8.7185878,4.0337352 -2.2072895,0.01601326 8.7185884,-4.0017078 c -1.7454984,2.3720609 -1.7354408,5.6174519 -6e-7,8.035443 z"
         transform="scale(-0.6,-0.6)"
         id="path7738-1"
         style="fill:#00ffff;fill-rule:evenodd;stroke:#00ffff;stroke-width:0.625;stroke-linejoin:round" />
    </marker>
    <marker
       refX="0"
       refY="0"
       orient="auto"
       id="Arrow2MendDW-3"
       style="overflow:visible">
      <path
         d="M 8.7185878,4.0337352 -2.2072895,0.01601326 8.7185884,-4.0017078 c -1.7454984,2.3720609 -1.7354408,5.6174519 -6e-7,8.035443 z"
         transform="scale(-0.6,-0.6)"
         id="path7741-4"
         style="fill:#00ffff;fill-rule:evenodd;stroke:#00ffff;stroke-width:0.625;stroke-linejoin:round" />
    </marker>
    <marker
       refX="0"
       refY="0"
       orient="auto"
       id="Arrow2MendPB-2"
       style="overflow:visible">
      <path
         d="M 8.7185878,4.0337352 -2.2072895,0.01601326 8.7185884,-4.0017078 c -1.7454984,2.3720609 -1.7354408,5.6174519 -6e-7,8.035443 z"
         transform="scale(-0.6,-0.6)"
         id="path7744-3"
         style="fill:#00ffff;fill-rule:evenodd;stroke:#00ffff;stroke-width:0.625;stroke-linejoin:round" />
    </marker>
    <marker
       refX="0"
       refY="0"
       orient="auto"
       id="Arrow2Mendg8-3"
       style="overflow:visible">
      <path
         d="M 8.7185878,4.0337352 -2.2072895,0.01601326 8.7185884,-4.0017078 c -1.7454984,2.3720609 -1.7354408,5.6174519 -6e-7,8.035443 z"
         transform="scale(-0.6,-0.6)"
         id="path7747-1"
         style="fill:#00ffff;fill-rule:evenodd;stroke:#00ffff;stroke-width:0.625;stroke-linejoin:round" />
    </marker>
    <marker
       refX="0"
       refY="0"
       orient="auto"
       id="Arrow2Mend9d-5"
       style="overflow:visible">
      <path
         d="M 8.7185878,4.0337352 -2.2072895,0.01601326 8.7185884,-4.0017078 c -1.7454984,2.3720609 -1.7354408,5.6174519 -6e-7,8.035443 z"
         transform="scale(-0.6,-0.6)"
         id="path7750-4"
         style="fill:#00ffff;fill-rule:evenodd;stroke:#00ffff;stroke-width:0.625;stroke-linejoin:round" />
    </marker>
    <marker
       refX="0"
       refY="0"
       orient="auto"
       id="Arrow2MendoH-7"
       style="overflow:visible">
      <path
         d="M 8.7185878,4.0337352 -2.2072895,0.01601326 8.7185884,-4.0017078 c -1.7454984,2.3720609 -1.7354408,5.6174519 -6e-7,8.035443 z"
         transform="scale(-0.6,-0.6)"
         id="path7753-9"
         style="fill:#00ffff;fill-rule:evenodd;stroke:#00ffff;stroke-width:0.625;stroke-linejoin:round" />
    </marker>
    <marker
       refX="0"
       refY="0"
       orient="auto"
       id="Arrow2MendpK-9"
       style="overflow:visible">
      <path
         d="M 8.7185878,4.0337352 -2.2072895,0.01601326 8.7185884,-4.0017078 c -1.7454984,2.3720609 -1.7354408,5.6174519 -6e-7,8.035443 z"
         transform="scale(-0.6,-0.6)"
         id="path7756-2"
         style="fill:#00ffff;fill-rule:evenodd;stroke:#00ffff;stroke-width:0.625;stroke-linejoin:round" />
    </marker>
    <marker
       refX="0"
       refY="0"
       orient="auto"
       id="Arrow2MendIi-1"
       style="overflow:visible">
      <path
         d="M 8.7185878,4.0337352 -2.2072895,0.01601326 8.7185884,-4.0017078 c -1.7454984,2.3720609 -1.7354408,5.6174519 -6e-7,8.035443 z"
         transform="scale(-0.6,-0.6)"
         id="path7759-8"
         style="fill:#00ffff;fill-rule:evenodd;stroke:#00ffff;stroke-width:0.625;stroke-linejoin:round" />
    </marker>
    <marker
       refX="0"
       refY="0"
       orient="auto"
       id="Arrow2MendWi-7"
       style="overflow:visible">
      <path
         d="M 8.7185878,4.0337352 -2.2072895,0.01601326 8.7185884,-4.0017078 c -1.7454984,2.3720609 -1.7354408,5.6174519 -6e-7,8.035443 z"
         transform="scale(-0.6,-0.6)"
         id="path7762-6"
         style="fill:#00ffff;fill-rule:evenodd;stroke:#00ffff;stroke-width:0.625;stroke-linejoin:round" />
    </marker>
    <marker
       refX="0"
       refY="0"
       orient="auto"
       id="Arrow2Mend9zF-8"
       style="overflow:visible">
      <path
         d="M 8.7185878,4.0337352 -2.2072895,0.01601326 8.7185884,-4.0017078 c -1.7454984,2.3720609 -1.7354408,5.6174519 -6e-7,8.035443 z"
         transform="scale(-0.6,-0.6)"
         id="path7765-5"
         style="fill:#00ffff;fill-rule:evenodd;stroke:#00ffff;stroke-width:0.625;stroke-linejoin:round" />
    </marker>
    <marker
       refX="0"
       refY="0"
       orient="auto"
       id="Arrow2MendtI-1"
       style="overflow:visible">
      <path
         d="M 8.7185878,4.0337352 -2.2072895,0.01601326 8.7185884,-4.0017078 c -1.7454984,2.3720609 -1.7354408,5.6174519 -6e-7,8.035443 z"
         transform="scale(-0.6,-0.6)"
         id="path7768-6"
         style="fill:#00ffff;fill-rule:evenodd;stroke:#00ffff;stroke-width:0.625;stroke-linejoin:round" />
    </marker>
    <marker
       refX="0"
       refY="0"
       orient="auto"
       id="Arrow2MendDcX-2"
       style="overflow:visible">
      <path
         d="M 8.7185878,4.0337352 -2.2072895,0.01601326 8.7185884,-4.0017078 c -1.7454984,2.3720609 -1.7354408,5.6174519 -6e-7,8.035443 z"
         transform="scale(-0.6,-0.6)"
         id="path7771-2"
         style="fill:#00ffff;fill-rule:evenodd;stroke:#00ffff;stroke-width:0.625;stroke-linejoin:round" />
    </marker>
    <marker
       refX="0"
       refY="0"
       orient="auto"
       id="Arrow1Mstart-14"
       style="overflow:visible">
      <path
         d="M 0,0 5,-5 -12.5,0 5,5 0,0 z"
         transform="matrix(0.4,0,0,0.4,4,0)"
         id="path5942-23"
         style="fill-rule:evenodd;stroke:#000000;stroke-width:1pt" />
    </marker>
    <marker
       refX="0"
       refY="0"
       orient="auto"
       id="Arrow1Mend-52"
       style="overflow:visible">
      <path
         d="M 0,0 5,-5 -12.5,0 5,5 0,0 z"
         transform="matrix(-0.4,0,0,-0.4,-4,0)"
         id="path5945-76"
         style="fill-rule:evenodd;stroke:#000000;stroke-width:1pt" />
    </marker>
    <marker
       refX="0"
       refY="0"
       orient="auto"
       id="Arrow1Lstart-71"
       style="overflow:visible">
      <path
         d="M 0,0 5,-5 -12.5,0 5,5 0,0 z"
         transform="matrix(0.8,0,0,0.8,10,0)"
         id="path5936-1"
         style="fill-rule:evenodd;stroke:#000000;stroke-width:1pt" />
    </marker>
    <marker
       refX="0"
       refY="0"
       orient="auto"
       id="Arrow1Lend-5"
       style="overflow:visible">
      <path
         d="M 0,0 5,-5 -12.5,0 5,5 0,0 z"
         transform="matrix(-0.8,0,0,-0.8,-10,0)"
         id="path5939-1"
         style="fill-rule:evenodd;stroke:#000000;stroke-width:1pt" />
    </marker>
    <marker
       refX="0"
       refY="0"
       orient="auto"
       id="Arrow1Mstart-41-989"
       style="overflow:visible">
      <path
         d="M 0,0 5,-5 -12.5,0 5,5 0,0 z"
         transform="matrix(0.4,0,0,0.4,4,0)"
         id="path5942-20-7"
         style="fill-rule:evenodd;stroke:#000000;stroke-width:1pt" />
    </marker>
    <marker
       refX="0"
       refY="0"
       orient="auto"
       id="Arrow1Mend-01-2"
       style="overflow:visible">
      <path
         d="M 0,0 5,-5 -12.5,0 5,5 0,0 z"
         transform="matrix(-0.4,0,0,-0.4,-4,0)"
         id="path5945-4-2"
         style="fill-rule:evenodd;stroke:#000000;stroke-width:1pt" />
    </marker>
    <marker
       refX="0"
       refY="0"
       orient="auto"
       id="Arrow1Mstart-41-2"
       style="overflow:visible">
      <path
         d="M 0,0 5,-5 -12.5,0 5,5 0,0 z"
         transform="matrix(0.4,0,0,0.4,4,0)"
         id="path5942-20-8"
         style="fill-rule:evenodd;stroke:#000000;stroke-width:1pt" />
    </marker>
    <marker
       refX="0"
       refY="0"
       orient="auto"
       id="Arrow1Mend-01-9"
       style="overflow:visible">
      <path
         d="M 0,0 5,-5 -12.5,0 5,5 0,0 z"
         transform="matrix(-0.4,0,0,-0.4,-4,0)"
         id="path5945-4-0"
         style="fill-rule:evenodd;stroke:#000000;stroke-width:1pt" />
    </marker>
    <marker
       refX="0"
       refY="0"
       orient="auto"
       id="Arrow1Mstart-41-8"
       style="overflow:visible">
      <path
         d="M 0,0 5,-5 -12.5,0 5,5 0,0 z"
         transform="matrix(0.4,0,0,0.4,4,0)"
         id="path5942-20-1"
         style="fill-rule:evenodd;stroke:#000000;stroke-width:1pt" />
    </marker>
    <marker
       refX="0"
       refY="0"
       orient="auto"
       id="Arrow1Mend-01-5"
       style="overflow:visible">
      <path
         d="M 0,0 5,-5 -12.5,0 5,5 0,0 z"
         transform="matrix(-0.4,0,0,-0.4,-4,0)"
         id="path5945-4-86"
         style="fill-rule:evenodd;stroke:#000000;stroke-width:1pt" />
    </marker>
  </defs>
  <metadata
     id="metadata7">
    <rdf:RDF>
      <cc:Work
         rdf:about="">
        <dc:format>image/svg+xml</dc:format>
        <dc:type
           rdf:resource="http://purl.org/dc/dcmitype/StillImage" />
        <dc:title>Process-to-Process Intercommunication Pattern</dc:title>
      </cc:Work>
    </rdf:RDF>
  </metadata>
  <g
     id="layer1">
    <flowRoot
       transform="translate(210,-154.99999)"
       id="flowRoot5615"
       xml:space="preserve"
       style="font-size:10px;font-style:normal;font-variant:normal;font-weight:normal;font-stretch:normal;text-align:start;line-height:100%;letter-spacing:0px;word-spacing:0px;writing-mode:tb-rl;text-anchor:start;fill:#000000;fill-opacity:1;stroke:none;font-family:Times New Roman;-inkscape-font-specification:'Times New Roman,'"><flowRegion
         id="flowRegion5617"><rect
           width="46.42857"
           height="18.571428"
           x="51.42857"
           y="527.36218"
           id="rect5619" /></flowRegion><flowPara
         id="flowPara5621" /></flowRoot>    <flowRoot
       transform="translate(185,-469.375)"
       id="flowRoot5615-7"
       xml:space="preserve"
       style="font-size:10px;font-style:normal;font-variant:normal;font-weight:normal;font-stretch:normal;text-align:start;line-height:100%;letter-spacing:0px;word-spacing:0px;writing-mode:tb-rl;text-anchor:start;fill:#000000;fill-opacity:1;stroke:none;font-family:Times New Roman;-inkscape-font-specification:'Times New Roman,'"><flowRegion
         id="flowRegion5617-2"><rect
           width="46.42857"
           height="18.571428"
           x="51.42857"
           y="527.36218"
           id="rect5619-6" /></flowRegion><flowPara
         id="flowPara5621-0" /></flowRoot>    <g
       id="g5565">
      <g
         id="g5506">
        <g
           id="g5437">
          <rect
             width="140"
             height="330.00006"
             ry="0"
             x="300"
             y="187.36218"
             id="rect5014"
             style="fill:none;stroke:#000000;stroke-width:1.25;stroke-linecap:butt;stroke-linejoin:miter;stroke-miterlimit:0;stroke-opacity:1;stroke-dasharray:1.25000004, 1.25000004;stroke-dashoffset:0" />
          <text
             x="318.44971"
             y="199.75476"
             id="text5258"
             xml:space="preserve"
             style="font-size:10px;font-style:normal;font-variant:normal;font-weight:normal;font-stretch:normal;text-align:start;line-height:100%;letter-spacing:0px;word-spacing:0px;writing-mode:lr-tb;text-anchor:start;fill:#000000;fill-opacity:1;stroke:none;font-family:Times New Roman;-inkscape-font-specification:'Times New Roman,'"><tspan
               x="318.44971"
               y="199.75476"
               id="tspan5260">Alya “NASTIN” Instance</tspan></text>
        </g>
        <g
           id="g5329">
          <g
             transform="translate(160,-154.99999)"
             id="g5335">
            <path
               d="m 140,742.36218 a 10,10 0 1 1 -20,0 10,10 0 1 1 20,0 z"
               transform="matrix(0.25,0,0,0.24999983,172.5,371.77176)"
               id="path5290"
               style="fill:#000000;fill-opacity:1;stroke:none" />
            <path
               d="m 140,742.36218 a 10,10 0 1 1 -20,0 10,10 0 1 1 20,0 z"
               transform="matrix(0.25,0,0,0.24999983,172.5,386.77176)"
               id="path5290-2"
               style="fill:#000000;fill-opacity:1;stroke:none" />
            <path
               d="m 140,742.36218 a 10,10 0 1 1 -20,0 10,10 0 1 1 20,0 z"
               transform="matrix(0.25,0,0,0.24999983,172.5,401.77176)"
               id="path5290-9"
               style="fill:#000000;fill-opacity:1;stroke:none" />
          </g>
          <g
             id="g5215">
            <g
               transform="translate(210,-154.99999)"
               id="g13690">
              <path
                 d="m 140,427.36218 75,0 0,50 -75,0 m -0.0688,-2e-5 c 24.85278,0.0211 45.03076,-11.15465 45.06877,-24.96176 0.038,-13.8071 -20.07834,-25.01708 -44.93112,-25.03818 -0.0384,-4e-5 -0.0767,-4e-5 -0.11517,-2e-5"
                 id="path4517"
                 style="fill:none;stroke:#000000;stroke-width:2.5;stroke-linecap:round;stroke-linejoin:miter;stroke-miterlimit:0;stroke-opacity:1;stroke-dasharray:none" />
              <text
                 x="184.19238"
                 y="473.60437"
                 id="text4624"
                 xml:space="preserve"
                 style="font-size:10px;font-style:normal;font-variant:normal;font-weight:normal;font-stretch:normal;text-align:start;line-height:0%;letter-spacing:0px;word-spacing:0px;writing-mode:lr-tb;text-anchor:start;fill:#000000;fill-opacity:1;stroke:none;font-family:Times New Roman;-inkscape-font-specification:'Times New Roman,'"><tspan
                   x="184.19238"
                   y="473.60437"
                   id="tspan4626"
                   style="font-size:10px;font-style:normal;font-variant:normal;font-weight:normal;font-stretch:normal;text-align:start;line-height:100%;writing-mode:lr-tb;text-anchor:start;font-family:Times New Roman;-inkscape-font-specification:'Times New Roman,'">Master</tspan></text>
              <path
                 d="m 201.00112,456.33691 c -0.66059,0.0675 -1.34165,0.0675 -2.00224,0 M 205,448.86218 c 0,1.38071 -2.23858,2.5 -5,2.5 -2.76142,0 -5,-1.11929 -5,-2.5 0,-0.001 0,-0.002 0,-0.003 m 10,3.50304 0,-3.5 c 0,-1.38071 -2.23858,-2.5 -5,-2.5 -2.76142,0 -5,1.11929 -5,2.5 l 0,3.5 m -6,7.49696 c 0,0.001 0,0.002 0,0.003 0,1.38071 2.23858,2.5 5,2.5 2.76142,0 5,-1.11929 5,-2.5 l 0,-4.99996 c 0,-1.38071 -2.23858,-2.5 -5,-2.5 -2.76142,0 -5,1.11929 -5,2.5 0,0.001 0,0.002 0,0.003 z m 10,-4.997 c 0,1.38071 -2.23858,2.5 -5,2.5 -2.76142,0 -5,-1.11929 -5,-2.5 0,-0.001 0,-0.002 0,-0.003 m 12,5 c 0,0.001 0,0.002 0,0.003 0,1.38071 2.23858,2.5 5,2.5 2.76142,0 5,-1.11929 5,-2.5 l 0,-4.99996 c 0,-1.38071 -2.23858,-2.5 -5,-2.5 -2.76142,0 -5,1.11929 -5,2.5 0,0.001 0,0.002 0,0.003 z m 10,-4.997 c 0,1.38071 -2.23858,2.5 -5,2.5 -2.76142,0 -5,-1.11929 -5,-2.5 0,-0.001 0,-0.002 0,-0.003"
                 id="path12418-3-8"
                 style="fill:none;stroke:#000000;stroke-width:1.25;stroke-linecap:round;stroke-linejoin:miter;stroke-miterlimit:0;stroke-opacity:1;stroke-dashoffset:0" />
              <text
                 x="179.73926"
                 y="436.76453"
                 id="text4624-0"
                 xml:space="preserve"
                 style="font-size:10px;font-style:normal;font-variant:normal;font-weight:normal;font-stretch:normal;text-align:start;line-height:0%;letter-spacing:0px;word-spacing:0px;writing-mode:lr-tb;text-anchor:start;fill:#000000;fill-opacity:1;stroke:none;font-family:Times New Roman;-inkscape-font-specification:'Times New Roman,'"><tspan
                   x="179.73926"
                   y="436.76453"
                   id="tspan4626-8"
                   style="font-size:10px;font-style:normal;font-variant:normal;font-weight:normal;font-stretch:normal;text-align:start;line-height:100%;writing-mode:lr-tb;text-anchor:start;font-family:Times New Roman;-inkscape-font-specification:'Times New Roman,'">Adapter</tspan></text>
            </g>
            <g
               id="g5159">
              <path
                 d="m 390,297.36221 a 40,20.000001 0 0 1 -80,-3e-5 40,20.000001 0 1 1 80,3e-5 z"
                 id="path3720"
                 style="fill:none;stroke:#000000;stroke-width:2.5;stroke-linecap:round;stroke-miterlimit:4;stroke-opacity:1;stroke-dasharray:none;stroke-dashoffset:0" />
              <text
                 x="314.43726"
                 y="299.75476"
                 id="text4767-8"
                 xml:space="preserve"
                 style="font-size:10px;font-style:normal;font-variant:normal;font-weight:normal;font-stretch:normal;text-align:start;line-height:100%;letter-spacing:0px;word-spacing:0px;writing-mode:lr-tb;text-anchor:start;fill:#000000;fill-opacity:1;stroke:none;font-family:Times New Roman;-inkscape-font-specification:'Times New Roman,'"><tspan
                   x="314.43726"
                   y="299.75476"
                   id="tspan4769-0">Alya “NASTIN”<tspan
   id="tspan4771-8"
   style="font-size:65.00091553%;font-style:oblique;font-variant:normal;font-weight:normal;font-stretch:normal;baseline-shift:sub;font-family:Latin Modern Math;-inkscape-font-specification:Latin Modern Math Oblique">2</tspan></tspan></text>
            </g>
          </g>
          <g
             id="g5229">
            <g
               transform="translate(210,-154.99999)"
               id="g18532">
              <path
                 d="m 140.00003,487.32396 75,0 0,50 -75,0 m -0.0688,-2e-5 c 24.85278,0.0211 45.03076,-11.15465 45.06877,-24.96176 0.038,-13.8071 -20.07834,-25.01708 -44.93112,-25.03818 -0.0384,-4e-5 -0.0767,-4e-5 -0.11517,-2e-5"
                 id="path4517-8"
                 style="fill:none;stroke:#000000;stroke-width:2.5;stroke-linecap:round;stroke-linejoin:miter;stroke-miterlimit:0;stroke-opacity:1;stroke-dasharray:none" />
              <path
                 d="m 201.00115,516.29869 c -0.66059,0.0675 -1.34165,0.0675 -2.00224,0 m 6.00112,-7.47473 c 0,1.38071 -2.23858,2.5 -5,2.5 -2.76142,0 -5,-1.11929 -5,-2.5 0,-10e-4 0,-0.002 0,-0.003 m 10,3.50304 0,-3.5 c 0,-1.38071 -2.23858,-2.5 -5,-2.5 -2.76142,0 -5,1.11929 -5,2.5 l 0,3.5 m -6,7.49696 c 0,10e-4 0,0.002 0,0.003 0,1.38071 2.23858,2.5 5,2.5 2.76142,0 5,-1.11929 5,-2.5 l 0,-4.99996 c 0,-1.38071 -2.23858,-2.5 -5,-2.5 -2.76142,0 -5,1.11929 -5,2.5 0,0.001 0,0.002 0,0.003 z m 10,-4.997 c 0,1.38071 -2.23858,2.5 -5,2.5 -2.76142,0 -5,-1.11929 -5,-2.5 0,-0.001 0,-0.002 0,-0.003 m 12,5 c 0,10e-4 0,0.002 0,0.003 0,1.38071 2.23858,2.5 5,2.5 2.76142,0 5,-1.11929 5,-2.5 l 0,-4.99996 c 0,-1.38071 -2.23858,-2.5 -5,-2.5 -2.76142,0 -5,1.11929 -5,2.5 0,0.001 0,0.002 0,0.003 z m 10,-4.997 c 0,1.38071 -2.23858,2.5 -5,2.5 -2.76142,0 -5,-1.11929 -5,-2.5 0,-0.001 0,-0.002 0,-0.003"
                 id="path12418-3-8-9"
                 style="fill:none;stroke:#000000;stroke-width:1.25;stroke-linecap:round;stroke-linejoin:miter;stroke-miterlimit:0;stroke-opacity:1;stroke-dashoffset:0" />
              <text
                 x="179.73926"
                 y="496.76453"
                 id="text4624-0-8"
                 xml:space="preserve"
                 style="font-size:10px;font-style:normal;font-variant:normal;font-weight:normal;font-stretch:normal;text-align:start;line-height:0%;letter-spacing:0px;word-spacing:0px;writing-mode:lr-tb;text-anchor:start;fill:#000000;fill-opacity:1;stroke:none;font-family:Times New Roman;-inkscape-font-specification:'Times New Roman,'"><tspan
                   x="179.73926"
                   y="496.76453"
                   id="tspan4626-8-9"
                   style="font-size:10px;font-style:normal;font-variant:normal;font-weight:normal;font-stretch:normal;text-align:start;line-height:100%;writing-mode:lr-tb;text-anchor:start;font-family:Times New Roman;-inkscape-font-specification:'Times New Roman,'">Adapter</tspan></text>
            </g>
            <g
               id="g5165">
              <path
                 d="m 390,357.36221 a 40,20.000001 0 0 1 -80,-3e-5 40,20.000001 0 1 1 80,3e-5 z"
                 id="path3720-7"
                 style="fill:none;stroke:#000000;stroke-width:2.49993634;stroke-linecap:round;stroke-miterlimit:4;stroke-opacity:1;stroke-dasharray:none;stroke-dashoffset:0" />
              <text
                 x="314.48318"
                 y="359.75476"
                 id="text4767-7"
                 xml:space="preserve"
                 style="font-size:10px;font-style:normal;font-variant:normal;font-weight:normal;font-stretch:normal;text-align:start;line-height:100%;letter-spacing:0px;word-spacing:0px;writing-mode:lr-tb;text-anchor:start;fill:#000000;fill-opacity:1;stroke:none;font-family:Times New Roman;-inkscape-font-specification:'Times New Roman,'"><tspan
                   x="314.48318"
                   y="359.75476"
                   id="tspan4769-7">Alya “NASTIN”<tspan
   id="tspan4771-83"
   style="font-size:65.00091553%;font-style:oblique;font-variant:normal;font-weight:normal;font-stretch:normal;baseline-shift:sub;font-family:Latin Modern Math;-inkscape-font-specification:Latin Modern Math Oblique">3</tspan></tspan></text>
            </g>
          </g>
          <g
             id="g5241">
            <g
               transform="translate(210,-154.99999)"
               id="g18511">
              <path
                 d="m 140.00003,607.32396 75,0 0,50 -75,0 m -0.0688,-2e-5 c 24.85278,0.0211 45.03076,-11.15465 45.06877,-24.96176 0.038,-13.8071 -20.07834,-25.01708 -44.93112,-25.03818 -0.0384,-4e-5 -0.0767,-4e-5 -0.11517,-2e-5"
                 id="path4517-8-2"
                 style="fill:none;stroke:#000000;stroke-width:2.5;stroke-linecap:round;stroke-linejoin:miter;stroke-miterlimit:0;stroke-opacity:1;stroke-dasharray:none" />
              <path
                 d="m 201.00115,636.29869 c -0.66059,0.0675 -1.34165,0.0675 -2.00224,0 m 6.00112,-7.47473 c 0,1.38071 -2.23858,2.5 -5,2.5 -2.76142,0 -5,-1.11929 -5,-2.5 0,-0.001 0,-0.002 0,-0.003 m 10,3.50304 0,-3.5 c 0,-1.38071 -2.23858,-2.5 -5,-2.5 -2.76142,0 -5,1.11929 -5,2.5 l 0,3.5 m -6,7.49696 c 0,10e-4 0,0.002 0,0.003 0,1.38071 2.23858,2.5 5,2.5 2.76142,0 5,-1.11929 5,-2.5 l 0,-4.99996 c 0,-1.38071 -2.23858,-2.5 -5,-2.5 -2.76142,0 -5,1.11929 -5,2.5 0,0.001 0,0.002 0,0.003 z m 10,-4.997 c 0,1.38071 -2.23858,2.5 -5,2.5 -2.76142,0 -5,-1.11929 -5,-2.5 0,-0.001 0,-0.002 0,-0.003 m 12,5 c 0,10e-4 0,0.002 0,0.003 0,1.38071 2.23858,2.5 5,2.5 2.76142,0 5,-1.11929 5,-2.5 l 0,-4.99996 c 0,-1.38071 -2.23858,-2.5 -5,-2.5 -2.76142,0 -5,1.11929 -5,2.5 0,0.001 0,0.002 0,0.003 z m 10,-4.997 c 0,1.38071 -2.23858,2.5 -5,2.5 -2.76142,0 -5,-1.11929 -5,-2.5 0,-0.001 0,-0.002 0,-0.003"
                 id="path12418-3-8-9-2"
                 style="fill:none;stroke:#000000;stroke-width:1.25;stroke-linecap:round;stroke-linejoin:miter;stroke-miterlimit:0;stroke-opacity:1;stroke-dashoffset:0" />
              <text
                 x="179.73926"
                 y="616.76453"
                 id="text4624-0-8-8"
                 xml:space="preserve"
                 style="font-size:10px;font-style:normal;font-variant:normal;font-weight:normal;font-stretch:normal;text-align:start;line-height:0%;letter-spacing:0px;word-spacing:0px;writing-mode:lr-tb;text-anchor:start;fill:#000000;fill-opacity:1;stroke:none;font-family:Times New Roman;-inkscape-font-specification:'Times New Roman,'"><tspan
                   x="179.73926"
                   y="616.76453"
                   id="tspan4626-8-9-9"
                   style="font-size:10px;font-style:normal;font-variant:normal;font-weight:normal;font-stretch:normal;text-align:start;line-height:100%;writing-mode:lr-tb;text-anchor:start;font-family:Times New Roman;-inkscape-font-specification:'Times New Roman,'">Adapter</tspan></text>
            </g>
            <g
               id="g5171">
              <path
                 d="m 390,477.36221 a 40,20.000001 0 0 1 -80,-3e-5 40,20.000001 0 1 1 80,3e-5 z"
                 id="path3720-2"
                 style="fill:none;stroke:#000000;stroke-width:2.49993634;stroke-linecap:round;stroke-miterlimit:4;stroke-opacity:1;stroke-dasharray:none;stroke-dashoffset:0" />
              <text
                 x="313.5509"
                 y="479.75476"
                 id="text4767-7-8"
                 xml:space="preserve"
                 style="font-size:10px;font-style:normal;font-variant:normal;font-weight:normal;font-stretch:normal;text-align:start;line-height:100%;letter-spacing:0px;word-spacing:0px;writing-mode:lr-tb;text-anchor:start;fill:#000000;fill-opacity:1;stroke:none;font-family:Times New Roman;-inkscape-font-specification:'Times New Roman,'"><tspan
                   x="313.5509"
                   y="479.75476"
                   id="tspan4769-7-3">Alya “NASTIN”<tspan
   id="tspan4771-83-7"
   style="font-size:65.00091553%;font-style:oblique;font-variant:normal;font-weight:normal;font-stretch:normal;baseline-shift:sub;font-family:Latin Modern Math;-inkscape-font-specification:Latin Modern Math Oblique">m</tspan></tspan></text>
            </g>
          </g>
          <g
             id="g5201">
            <g
               id="g5153">
              <text
                 x="314.83142"
                 y="239.75476"
                 id="text4767"
                 xml:space="preserve"
                 style="font-size:10px;font-style:normal;font-variant:normal;font-weight:normal;font-stretch:normal;text-align:start;line-height:100%;letter-spacing:0px;word-spacing:0px;writing-mode:lr-tb;text-anchor:start;fill:#000000;fill-opacity:1;stroke:none;font-family:Times New Roman;-inkscape-font-specification:'Times New Roman,'"><tspan
                   x="314.83142"
                   y="239.75476"
                   id="tspan4769">Alya “NASTIN”<tspan
   id="tspan4771"
   style="font-size:65.00091553%;font-style:oblique;font-variant:normal;font-weight:normal;font-stretch:normal;baseline-shift:sub;font-family:Latin Modern Math;-inkscape-font-specification:Latin Modern Math Oblique">1</tspan></tspan></text>
              <path
                 d="m 390,237.3622 a 40,20.000001 0 1 1 -80,-3e-5 40,20.000001 0 0 1 80,3e-5 z"
                 id="path3720-8"
                 style="fill:none;stroke:#000000;stroke-width:2.5;stroke-linecap:round;stroke-miterlimit:4;stroke-opacity:1;stroke-dasharray:none;stroke-dashoffset:0" />
            </g>
            <g
               transform="translate(210,-215)"
               id="g13690-3">
              <path
                 d="m 140,427.36218 75,0 0,50 -75,0 m -0.0688,-2e-5 c 24.85278,0.0211 45.03076,-11.15465 45.06877,-24.96176 0.038,-13.8071 -20.07834,-25.01708 -44.93112,-25.03818 -0.0384,-4e-5 -0.0767,-4e-5 -0.11517,-2e-5"
                 id="path4517-4"
                 style="fill:none;stroke:#000000;stroke-width:2.5;stroke-linecap:round;stroke-linejoin:miter;stroke-miterlimit:0;stroke-opacity:1;stroke-dasharray:none" />
              <text
                 x="184.19238"
                 y="473.60437"
                 id="text4624-84"
                 xml:space="preserve"
                 style="font-size:10px;font-style:normal;font-variant:normal;font-weight:normal;font-stretch:normal;text-align:start;line-height:0%;letter-spacing:0px;word-spacing:0px;writing-mode:lr-tb;text-anchor:start;fill:#000000;fill-opacity:1;stroke:none;font-family:Times New Roman;-inkscape-font-specification:'Times New Roman,'"><tspan
                   x="184.19238"
                   y="473.60437"
                   id="tspan4626-9"
                   style="font-size:10px;font-style:normal;font-variant:normal;font-weight:normal;font-stretch:normal;text-align:start;line-height:100%;writing-mode:lr-tb;text-anchor:start;font-family:Times New Roman;-inkscape-font-specification:'Times New Roman,'">Master</tspan></text>
              <path
                 d="m 201.00112,456.33691 c -0.66059,0.0675 -1.34165,0.0675 -2.00224,0 M 205,448.86218 c 0,1.38071 -2.23858,2.5 -5,2.5 -2.76142,0 -5,-1.11929 -5,-2.5 0,-0.001 0,-0.002 0,-0.003 m 10,3.50304 0,-3.5 c 0,-1.38071 -2.23858,-2.5 -5,-2.5 -2.76142,0 -5,1.11929 -5,2.5 l 0,3.5 m -6,7.49696 c 0,0.001 0,0.002 0,0.003 0,1.38071 2.23858,2.5 5,2.5 2.76142,0 5,-1.11929 5,-2.5 l 0,-4.99996 c 0,-1.38071 -2.23858,-2.5 -5,-2.5 -2.76142,0 -5,1.11929 -5,2.5 0,0.001 0,0.002 0,0.003 z m 10,-4.997 c 0,1.38071 -2.23858,2.5 -5,2.5 -2.76142,0 -5,-1.11929 -5,-2.5 0,-0.001 0,-0.002 0,-0.003 m 12,5 c 0,0.001 0,0.002 0,0.003 0,1.38071 2.23858,2.5 5,2.5 2.76142,0 5,-1.11929 5,-2.5 l 0,-4.99996 c 0,-1.38071 -2.23858,-2.5 -5,-2.5 -2.76142,0 -5,1.11929 -5,2.5 0,0.001 0,0.002 0,0.003 z m 10,-4.997 c 0,1.38071 -2.23858,2.5 -5,2.5 -2.76142,0 -5,-1.11929 -5,-2.5 0,-0.001 0,-0.002 0,-0.003"
                 id="path12418-3-8-92"
                 style="fill:none;stroke:#000000;stroke-width:1.25;stroke-linecap:round;stroke-linejoin:miter;stroke-miterlimit:0;stroke-opacity:1;stroke-dashoffset:0" />
              <text
                 x="179.73926"
                 y="436.76453"
                 id="text4624-0-5"
                 xml:space="preserve"
                 style="font-size:10px;font-style:normal;font-variant:normal;font-weight:normal;font-stretch:normal;text-align:start;line-height:0%;letter-spacing:0px;word-spacing:0px;writing-mode:lr-tb;text-anchor:start;fill:#000000;fill-opacity:1;stroke:none;font-family:Times New Roman;-inkscape-font-specification:'Times New Roman,'"><tspan
                   x="179.73926"
                   y="436.76453"
                   id="tspan4626-8-5"
                   style="font-size:10px;font-style:normal;font-variant:normal;font-weight:normal;font-stretch:normal;text-align:start;line-height:100%;writing-mode:lr-tb;text-anchor:start;font-family:Times New Roman;-inkscape-font-specification:'Times New Roman,'">Adapter</tspan></text>
            </g>
          </g>
        </g>
      </g>
      <g
         id="g5447">
        <g
           id="g5442">
          <rect
             width="140"
             height="330.00003"
             ry="0"
             x="530"
             y="187.36218"
             id="rect5014-8"
             style="fill:none;stroke:#000000;stroke-width:1.25000012;stroke-linecap:butt;stroke-linejoin:miter;stroke-miterlimit:0;stroke-opacity:1;stroke-dasharray:1.25000003, 1.25000003;stroke-dashoffset:0" />
          <text
             x="549.00635"
             y="199.75476"
             id="text5258-2"
             xml:space="preserve"
             style="font-size:10px;font-style:normal;font-variant:normal;font-weight:normal;font-stretch:normal;text-align:start;line-height:100%;letter-spacing:0px;word-spacing:0px;writing-mode:lr-tb;text-anchor:start;fill:#000000;fill-opacity:1;stroke:none;font-family:Times New Roman;-inkscape-font-specification:'Times New Roman,'"><tspan
               x="549.00635"
               y="199.75476"
               id="tspan5260-4">Alya “SOLIDZ” Instance</tspan></text>
        </g>
        <g
           id="g5383">
          <g
             transform="translate(400,-154.99999)"
             id="g5335-1">
            <path
               d="m 140,742.36218 a 10,10 0 1 1 -20,0 10,10 0 1 1 20,0 z"
               transform="matrix(0.25,0,0,0.24999983,172.5,371.77176)"
               id="path5290-3"
               style="fill:#000000;fill-opacity:1;stroke:none" />
            <path
               d="m 140,742.36218 a 10,10 0 1 1 -20,0 10,10 0 1 1 20,0 z"
               transform="matrix(0.25,0,0,0.24999983,172.5,386.77176)"
               id="path5290-2-5"
               style="fill:#000000;fill-opacity:1;stroke:none" />
            <path
               d="m 140,742.36218 a 10,10 0 1 1 -20,0 10,10 0 1 1 20,0 z"
               transform="matrix(0.25,0,0,0.24999983,172.5,401.77176)"
               id="path5290-9-9"
               style="fill:#000000;fill-opacity:1;stroke:none" />
          </g>
          <g
             id="g5301">
            <g
               transform="translate(110,-154.99999)"
               id="g13698">
              <path
                 d="m 510.00002,427.36302 -75,0 0,50 75,0 m 0.0688,-2e-5 c -24.85278,0.0211 -45.03076,-11.15465 -45.06877,-24.96176 -0.038,-13.8071 20.07834,-25.01708 44.93112,-25.03818 0.0384,-4e-5 0.0767,-4e-5 0.11517,-2e-5"
                 id="path4517-7"
                 style="fill:none;stroke:#000000;stroke-width:2.5;stroke-linecap:round;stroke-linejoin:miter;stroke-miterlimit:0;stroke-opacity:1;stroke-dasharray:none" />
              <text
                 x="437.83398"
                 y="473.60437"
                 id="text4624-8"
                 xml:space="preserve"
                 style="font-size:10px;font-style:normal;font-variant:normal;font-weight:normal;font-stretch:normal;text-align:start;line-height:0%;letter-spacing:0px;word-spacing:0px;writing-mode:lr-tb;text-anchor:start;fill:#000000;fill-opacity:1;stroke:none;font-family:Times New Roman;-inkscape-font-specification:'Times New Roman,'"><tspan
                   x="437.83398"
                   y="473.60437"
                   id="tspan4626-1"
                   style="font-size:10px;font-style:normal;font-variant:normal;font-weight:normal;font-stretch:normal;text-align:start;line-height:100%;writing-mode:lr-tb;text-anchor:start;font-family:Times New Roman;-inkscape-font-specification:'Times New Roman,'">Master</tspan></text>
              <path
                 d="m 448.9989,456.33775 c 0.66059,0.0675 1.34165,0.0675 2.00224,0 m -6.00112,-7.47473 c 0,1.38071 2.23858,2.5 5,2.5 2.76142,0 5,-1.11929 5,-2.5 0,-0.001 0,-0.002 0,-0.003 m -10,3.50304 0,-3.5 c 0,-1.38071 2.23858,-2.5 5,-2.5 2.76142,0 5,1.11929 5,2.5 l 0,3.5 m 6,7.49696 c 0,10e-4 0,0.002 0,0.003 0,1.38071 -2.23858,2.5 -5,2.5 -2.76142,0 -5,-1.11929 -5,-2.5 l 0,-4.99996 c 0,-1.38071 2.23858,-2.5 5,-2.5 2.76142,0 5,1.11929 5,2.5 0,10e-4 0,0.002 0,0.003 z m -10,-4.997 c 0,1.38071 2.23858,2.5 5,2.5 2.76142,0 5,-1.11929 5,-2.5 0,-0.001 0,-0.002 0,-0.003 m -12,5 c 0,10e-4 0,0.002 0,0.003 0,1.38071 -2.23858,2.5 -5,2.5 -2.76142,0 -5,-1.11929 -5,-2.5 l 0,-4.99996 c 0,-1.38071 2.23858,-2.5 5,-2.5 2.76142,0 5,1.11929 5,2.5 0,10e-4 0,0.002 0,0.003 z m -10,-4.997 c 0,1.38071 2.23858,2.5 5,2.5 2.76142,0 5,-1.11929 5,-2.5 0,-0.001 0,-0.002 0,-0.003"
                 id="path12418-3-8-5"
                 style="fill:none;stroke:#000000;stroke-width:1.25;stroke-linecap:round;stroke-linejoin:miter;stroke-miterlimit:0;stroke-opacity:1;stroke-dashoffset:0" />
              <text
                 x="437.92188"
                 y="436.76453"
                 id="text4624-0-86"
                 xml:space="preserve"
                 style="font-size:10px;font-style:normal;font-variant:normal;font-weight:normal;font-stretch:normal;text-align:start;line-height:0%;letter-spacing:0px;word-spacing:0px;writing-mode:lr-tb;text-anchor:start;fill:#000000;fill-opacity:1;stroke:none;font-family:Times New Roman;-inkscape-font-specification:'Times New Roman,'"><tspan
                   x="437.92188"
                   y="436.76453"
                   id="tspan4626-8-1"
                   style="font-size:10px;font-style:normal;font-variant:normal;font-weight:normal;font-stretch:normal;text-align:start;line-height:100%;writing-mode:lr-tb;text-anchor:start;font-family:Times New Roman;-inkscape-font-specification:'Times New Roman,'">Adapter</tspan></text>
            </g>
            <g
               id="g5189">
              <path
                 d="m 580,297.36221 a 40,20.000001 0 1 0 79.99999,-3e-5 40,20.000001 0 1 0 -79.99999,3e-5 z"
                 id="path3720-3"
                 style="fill:none;stroke:#000000;stroke-width:2.5;stroke-linecap:round;stroke-miterlimit:4;stroke-opacity:1;stroke-dasharray:none;stroke-dashoffset:0" />
              <text
                 x="584.9939"
                 y="299.75476"
                 id="text4767-8-4"
                 xml:space="preserve"
                 style="font-size:10px;font-style:normal;font-variant:normal;font-weight:normal;font-stretch:normal;text-align:start;line-height:100%;letter-spacing:0px;word-spacing:0px;writing-mode:lr-tb;text-anchor:start;fill:#000000;fill-opacity:1;stroke:none;font-family:Times New Roman;-inkscape-font-specification:'Times New Roman,'"><tspan
                   x="584.9939"
                   y="299.75476"
                   id="tspan4769-0-9">Alya “SOLIDZ”<tspan
   id="tspan4771-8-6"
   style="font-size:65.00091553%;font-style:oblique;font-variant:normal;font-weight:normal;font-stretch:normal;baseline-shift:sub;font-family:Latin Modern Math;-inkscape-font-specification:Latin Modern Math Oblique">2</tspan></tspan></text>
            </g>
          </g>
          <g
             id="g5289">
            <g
               transform="translate(110,-154.99999)"
               id="g18589">
              <path
                 d="m 509.99999,487.3248 -75,0 0,50 75,0 m 0.0688,-2e-5 c -24.85278,0.0211 -45.03076,-11.15465 -45.06877,-24.96176 -0.038,-13.8071 20.07834,-25.01708 44.93112,-25.03818 0.0384,-4e-5 0.0767,-4e-5 0.11517,-2e-5"
                 id="path4517-8-4"
                 style="fill:none;stroke:#000000;stroke-width:2.5;stroke-linecap:round;stroke-linejoin:miter;stroke-miterlimit:0;stroke-opacity:1;stroke-dasharray:none" />
              <path
                 d="m 448.99887,516.29953 c 0.66059,0.0675 1.34165,0.0675 2.00224,0 m -6.00112,-7.47473 c 0,1.38071 2.23858,2.5 5,2.5 2.76142,0 5,-1.11929 5,-2.5 0,-10e-4 0,-0.002 0,-0.003 m -10,3.50304 0,-3.5 c 0,-1.38071 2.23858,-2.5 5,-2.5 2.76142,0 5,1.11929 5,2.5 l 0,3.5 m 6,7.49696 c 0,10e-4 0,0.002 0,0.003 0,1.38071 -2.23858,2.5 -5,2.5 -2.76142,0 -5,-1.11929 -5,-2.5 l 0,-4.99996 c 0,-1.38071 2.23858,-2.5 5,-2.5 2.76142,0 5,1.11929 5,2.5 0,10e-4 0,0.002 0,0.003 z m -10,-4.997 c 0,1.38071 2.23858,2.5 5,2.5 2.76142,0 5,-1.11929 5,-2.5 0,-10e-4 0,-0.002 0,-0.003 m -12,5 c 0,10e-4 0,0.002 0,0.003 0,1.38071 -2.23858,2.5 -5,2.5 -2.76142,0 -5,-1.11929 -5,-2.5 l 0,-4.99996 c 0,-1.38071 2.23858,-2.5 5,-2.5 2.76142,0 5,1.11929 5,2.5 0,10e-4 0,0.002 0,0.003 z m -10,-4.997 c 0,1.38071 2.23858,2.5 5,2.5 2.76142,0 5,-1.11929 5,-2.5 0,-10e-4 0,-0.002 0,-0.003"
                 id="path12418-3-8-9-26"
                 style="fill:none;stroke:#000000;stroke-width:1.25;stroke-linecap:round;stroke-linejoin:miter;stroke-miterlimit:0;stroke-opacity:1;stroke-dashoffset:0" />
              <text
                 x="437.92188"
                 y="496.76453"
                 id="text4624-0-8-5"
                 xml:space="preserve"
                 style="font-size:10px;font-style:normal;font-variant:normal;font-weight:normal;font-stretch:normal;text-align:start;line-height:0%;letter-spacing:0px;word-spacing:0px;writing-mode:lr-tb;text-anchor:start;fill:#000000;fill-opacity:1;stroke:none;font-family:Times New Roman;-inkscape-font-specification:'Times New Roman,'"><tspan
                   x="437.92188"
                   y="496.76453"
                   id="tspan4626-8-9-3"
                   style="font-size:10px;font-style:normal;font-variant:normal;font-weight:normal;font-stretch:normal;text-align:start;line-height:100%;writing-mode:lr-tb;text-anchor:start;font-family:Times New Roman;-inkscape-font-specification:'Times New Roman,'">Adapter</tspan></text>
            </g>
            <g
               id="g5183">
              <path
                 d="m 580,357.36221 a 40,20.000001 0 1 0 79.99999,-3e-5 40,20.000001 0 1 0 -79.99999,3e-5 z"
                 id="path3720-7-1"
                 style="fill:none;stroke:#000000;stroke-width:2.49993634;stroke-linecap:round;stroke-miterlimit:4;stroke-opacity:1;stroke-dasharray:none;stroke-dashoffset:0" />
              <text
                 x="585.03979"
                 y="359.75476"
                 id="text4767-7-5"
                 xml:space="preserve"
                 style="font-size:10px;font-style:normal;font-variant:normal;font-weight:normal;font-stretch:normal;text-align:start;line-height:100%;letter-spacing:0px;word-spacing:0px;writing-mode:lr-tb;text-anchor:start;fill:#000000;fill-opacity:1;stroke:none;font-family:Times New Roman;-inkscape-font-specification:'Times New Roman,'"><tspan
                   x="585.03979"
                   y="359.75476"
                   id="tspan4769-7-1">Alya “SOLIDZ”<tspan
   id="tspan4771-83-0"
   style="font-size:65.00091553%;font-style:oblique;font-variant:normal;font-weight:normal;font-stretch:normal;baseline-shift:sub;font-family:Latin Modern Math;-inkscape-font-specification:Latin Modern Math Oblique">3</tspan></tspan></text>
            </g>
          </g>
          <g
             id="g5277">
            <g
               transform="translate(110,-154.99999)"
               id="g18595">
              <path
                 d="m 509.99999,607.32479 -75,0 0,50 75,0 m 0.0688,-2e-5 c -24.85278,0.0211 -45.03076,-11.15465 -45.06877,-24.96176 -0.038,-13.8071 20.07834,-25.01708 44.93112,-25.03818 0.0384,-4e-5 0.0767,-4e-5 0.11517,-2e-5"
                 id="path4517-8-2-2"
                 style="fill:none;stroke:#000000;stroke-width:2.5;stroke-linecap:round;stroke-linejoin:miter;stroke-miterlimit:0;stroke-opacity:1;stroke-dasharray:none" />
              <path
                 d="m 448.99887,636.29952 c 0.66059,0.0675 1.34165,0.0675 2.00224,0 m -6.00112,-7.47473 c 0,1.38071 2.23858,2.5 5,2.5 2.76142,0 5,-1.11929 5,-2.5 0,-10e-4 0,-0.002 0,-0.003 m -10,3.50304 0,-3.5 c 0,-1.38071 2.23858,-2.5 5,-2.5 2.76142,0 5,1.11929 5,2.5 l 0,3.5 m 6,7.49696 c 0,0.001 0,0.002 0,0.003 0,1.38071 -2.23858,2.5 -5,2.5 -2.76142,0 -5,-1.11929 -5,-2.5 l 0,-4.99996 c 0,-1.38071 2.23858,-2.5 5,-2.5 2.76142,0 5,1.11929 5,2.5 0,10e-4 0,0.002 0,0.003 z m -10,-4.997 c 0,1.38071 2.23858,2.5 5,2.5 2.76142,0 5,-1.11929 5,-2.5 0,-10e-4 0,-0.002 0,-0.003 m -12,5 c 0,0.001 0,0.002 0,0.003 0,1.38071 -2.23858,2.5 -5,2.5 -2.76142,0 -5,-1.11929 -5,-2.5 l 0,-4.99996 c 0,-1.38071 2.23858,-2.5 5,-2.5 2.76142,0 5,1.11929 5,2.5 0,10e-4 0,0.002 0,0.003 z m -10,-4.997 c 0,1.38071 2.23858,2.5 5,2.5 2.76142,0 5,-1.11929 5,-2.5 0,-10e-4 0,-0.002 0,-0.003"
                 id="path12418-3-8-9-2-1"
                 style="fill:none;stroke:#000000;stroke-width:1.25;stroke-linecap:round;stroke-linejoin:miter;stroke-miterlimit:0;stroke-opacity:1;stroke-dashoffset:0" />
              <text
                 x="437.92188"
                 y="616.76453"
                 id="text4624-0-8-8-8"
                 xml:space="preserve"
                 style="font-size:10px;font-style:normal;font-variant:normal;font-weight:normal;font-stretch:normal;text-align:start;line-height:0%;letter-spacing:0px;word-spacing:0px;writing-mode:lr-tb;text-anchor:start;fill:#000000;fill-opacity:1;stroke:none;font-family:Times New Roman;-inkscape-font-specification:'Times New Roman,'"><tspan
                   x="437.92188"
                   y="616.76453"
                   id="tspan4626-8-9-9-2"
                   style="font-size:10px;font-style:normal;font-variant:normal;font-weight:normal;font-stretch:normal;text-align:start;line-height:100%;writing-mode:lr-tb;text-anchor:start;font-family:Times New Roman;-inkscape-font-specification:'Times New Roman,'">Adapter</tspan></text>
            </g>
            <g
               id="g5177">
              <path
                 d="m 580,477.36221 a 40,20.000001 0 1 0 79.99999,-3e-5 40,20.000001 0 1 0 -79.99999,3e-5 z"
                 id="path3720-2-6"
                 style="fill:none;stroke:#000000;stroke-width:2.49993634;stroke-linecap:round;stroke-miterlimit:4;stroke-opacity:1;stroke-dasharray:none;stroke-dashoffset:0" />
              <text
                 x="585.01105"
                 y="479.75476"
                 id="text4767-7-8-9"
                 xml:space="preserve"
                 style="font-size:10px;font-style:normal;font-variant:normal;font-weight:normal;font-stretch:normal;text-align:start;line-height:100%;letter-spacing:0px;word-spacing:0px;writing-mode:lr-tb;text-anchor:start;fill:#000000;fill-opacity:1;stroke:none;font-family:Times New Roman;-inkscape-font-specification:'Times New Roman,'"><tspan
                   x="585.01105"
                   y="479.75476"
                   id="tspan4769-7-3-9">Alya “SOLIDZ”<tspan
   id="tspan4771-83-7-6"
   style="font-size:65.00091553%;font-style:oblique;font-variant:normal;font-weight:normal;font-stretch:normal;baseline-shift:sub;font-family:Latin Modern Math;-inkscape-font-specification:Latin Modern Math Oblique">n</tspan></tspan></text>
            </g>
          </g>
          <g
             id="g5315">
            <g
               transform="translate(109.99998,-215.00084)"
               id="g13698-3">
              <path
                 d="m 510.00002,427.36302 -75,0 0,50 75,0 m 0.0688,-2e-5 c -24.85278,0.0211 -45.03076,-11.15465 -45.06877,-24.96176 -0.038,-13.8071 20.07834,-25.01708 44.93112,-25.03818 0.0384,-4e-5 0.0767,-4e-5 0.11517,-2e-5"
                 id="path4517-7-3"
                 style="fill:none;stroke:#000000;stroke-width:2.5;stroke-linecap:round;stroke-linejoin:miter;stroke-miterlimit:0;stroke-opacity:1;stroke-dasharray:none" />
              <text
                 x="437.83398"
                 y="473.60437"
                 id="text4624-8-3"
                 xml:space="preserve"
                 style="font-size:10px;font-style:normal;font-variant:normal;font-weight:normal;font-stretch:normal;text-align:start;line-height:0%;letter-spacing:0px;word-spacing:0px;writing-mode:lr-tb;text-anchor:start;fill:#000000;fill-opacity:1;stroke:none;font-family:Times New Roman;-inkscape-font-specification:'Times New Roman,'"><tspan
                   x="437.83398"
                   y="473.60437"
                   id="tspan4626-1-7"
                   style="font-size:10px;font-style:normal;font-variant:normal;font-weight:normal;font-stretch:normal;text-align:start;line-height:100%;writing-mode:lr-tb;text-anchor:start;font-family:Times New Roman;-inkscape-font-specification:'Times New Roman,'">Master</tspan></text>
              <path
                 d="m 448.9989,456.33775 c 0.66059,0.0675 1.34165,0.0675 2.00224,0 m -6.00112,-7.47473 c 0,1.38071 2.23858,2.5 5,2.5 2.76142,0 5,-1.11929 5,-2.5 0,-0.001 0,-0.002 0,-0.003 m -10,3.50304 0,-3.5 c 0,-1.38071 2.23858,-2.5 5,-2.5 2.76142,0 5,1.11929 5,2.5 l 0,3.5 m 6,7.49696 c 0,10e-4 0,0.002 0,0.003 0,1.38071 -2.23858,2.5 -5,2.5 -2.76142,0 -5,-1.11929 -5,-2.5 l 0,-4.99996 c 0,-1.38071 2.23858,-2.5 5,-2.5 2.76142,0 5,1.11929 5,2.5 0,10e-4 0,0.002 0,0.003 z m -10,-4.997 c 0,1.38071 2.23858,2.5 5,2.5 2.76142,0 5,-1.11929 5,-2.5 0,-0.001 0,-0.002 0,-0.003 m -12,5 c 0,10e-4 0,0.002 0,0.003 0,1.38071 -2.23858,2.5 -5,2.5 -2.76142,0 -5,-1.11929 -5,-2.5 l 0,-4.99996 c 0,-1.38071 2.23858,-2.5 5,-2.5 2.76142,0 5,1.11929 5,2.5 0,10e-4 0,0.002 0,0.003 z m -10,-4.997 c 0,1.38071 2.23858,2.5 5,2.5 2.76142,0 5,-1.11929 5,-2.5 0,-0.001 0,-0.002 0,-0.003"
                 id="path12418-3-8-5-4"
                 style="fill:none;stroke:#000000;stroke-width:1.25;stroke-linecap:round;stroke-linejoin:miter;stroke-miterlimit:0;stroke-opacity:1;stroke-dashoffset:0" />
              <text
                 x="437.92188"
                 y="436.76453"
                 id="text4624-0-86-3"
                 xml:space="preserve"
                 style="font-size:10px;font-style:normal;font-variant:normal;font-weight:normal;font-stretch:normal;text-align:start;line-height:0%;letter-spacing:0px;word-spacing:0px;writing-mode:lr-tb;text-anchor:start;fill:#000000;fill-opacity:1;stroke:none;font-family:Times New Roman;-inkscape-font-specification:'Times New Roman,'"><tspan
                   x="437.92188"
                   y="436.76453"
                   id="tspan4626-8-1-8"
                   style="font-size:10px;font-style:normal;font-variant:normal;font-weight:normal;font-stretch:normal;text-align:start;line-height:100%;writing-mode:lr-tb;text-anchor:start;font-family:Times New Roman;-inkscape-font-specification:'Times New Roman,'">Adapter</tspan></text>
            </g>
            <g
               id="g5195">
              <text
                 x="585.38806"
                 y="239.75476"
                 id="text4767-1"
                 xml:space="preserve"
                 style="font-size:10px;font-style:normal;font-variant:normal;font-weight:normal;font-stretch:normal;text-align:start;line-height:100%;letter-spacing:0px;word-spacing:0px;writing-mode:lr-tb;text-anchor:start;fill:#000000;fill-opacity:1;stroke:none;font-family:Times New Roman;-inkscape-font-specification:'Times New Roman,'"><tspan
                   x="585.38806"
                   y="239.75476"
                   id="tspan4769-07">Alya “SOLIDZ”<tspan
   id="tspan4771-3"
   style="font-size:65.00091553%;font-style:oblique;font-variant:normal;font-weight:normal;font-stretch:normal;baseline-shift:sub;font-family:Latin Modern Math;-inkscape-font-specification:Latin Modern Math Oblique">1</tspan></tspan></text>
              <path
                 d="m 579.99998,237.36136 a 40,20.000001 0 1 0 79.99999,-3e-5 40,20.000001 0 1 0 -79.99999,3e-5 z"
                 id="path3720-3-0"
                 style="fill:none;stroke:#000000;stroke-width:2.5;stroke-linecap:round;stroke-miterlimit:4;stroke-opacity:1;stroke-dasharray:none;stroke-dashoffset:0" />
            </g>
          </g>
        </g>
      </g>
      <g
         id="g5141">
        <path
           d="m 540,297.36218 -110,180"
           id="path19437"
           style="fill:none;stroke:#000000;stroke-width:1.25;stroke-linecap:butt;stroke-linejoin:miter;stroke-miterlimit:0;stroke-opacity:1;stroke-dasharray:none;marker-start:url(#Arrow1Mstart-41);marker-end:url(#Arrow1Mend-01)" />
        <path
           d="m 430,297.36218 110,0"
           id="path19995-1"
           style="fill:none;stroke:#000000;stroke-width:1.25;stroke-linecap:butt;stroke-linejoin:miter;stroke-miterlimit:0;stroke-opacity:1;stroke-dasharray:none;marker-start:url(#Arrow1Mstart-41);marker-end:url(#Arrow1Mend-01)" />
        <path
           d="m 430,477.36218 110,0"
           id="path20553-6"
           style="fill:none;stroke:#000000;stroke-width:1.25;stroke-linecap:butt;stroke-linejoin:miter;stroke-miterlimit:0;stroke-opacity:1;stroke-dasharray:none;marker-start:url(#Arrow1Mstart-41);marker-end:url(#Arrow1Mend-01)" />
        <path
           d="m 430,357.36218 110,-60"
           id="path21389"
           style="fill:none;stroke:#000000;stroke-width:1.25;stroke-linecap:butt;stroke-linejoin:miter;stroke-miterlimit:0;stroke-opacity:1;stroke-dasharray:none;marker-start:url(#Arrow1Mstart-41);marker-end:url(#Arrow1Mend-01)" />
        <path
           d="m 430,297.36218 110,60"
           id="path21947"
           style="fill:none;stroke:#000000;stroke-width:1.25;stroke-linecap:butt;stroke-linejoin:miter;stroke-miterlimit:0;stroke-opacity:1;stroke-dasharray:none;marker-start:url(#Arrow1Mstart-41);marker-end:url(#Arrow1Mend-01)" />
        <path
           d="m 430,477.36218 110,-120"
           id="path22505"
           style="fill:none;stroke:#000000;stroke-width:1.25;stroke-linecap:butt;stroke-linejoin:miter;stroke-miterlimit:0;stroke-opacity:1;stroke-dasharray:none;marker-start:url(#Arrow1Mstart-41);marker-end:url(#Arrow1Mend-01)" />
        <path
           d="m 430,357.36218 110,0"
           id="path23621-5"
           style="fill:none;stroke:#000000;stroke-width:1.25;stroke-linecap:butt;stroke-linejoin:miter;stroke-miterlimit:0;stroke-opacity:1;stroke-dasharray:none;marker-start:url(#Arrow1Mstart-41);marker-end:url(#Arrow1Mend-01)" />
        <path
           d="m 430,297.36218 110,-60"
           id="path21389-8"
           style="fill:none;stroke:#000000;stroke-width:1.25;stroke-linecap:butt;stroke-linejoin:miter;stroke-miterlimit:0;stroke-opacity:1;stroke-dasharray:none;marker-start:url(#Arrow1Mstart-41);marker-end:url(#Arrow1Mend-01)" />
        <path
           d="m 430,237.36218 110,0"
           id="path19995-1-7"
           style="fill:none;stroke:#000000;stroke-width:1.25;stroke-linecap:butt;stroke-linejoin:miter;stroke-miterlimit:0;stroke-opacity:1;stroke-dasharray:none;marker-start:url(#Arrow1Mstart-41);marker-end:url(#Arrow1Mend-01)" />
        <path
           d="M 430,357.36218 540,237.36219"
           id="path22505-1"
           style="fill:none;stroke:#000000;stroke-width:1.25;stroke-linecap:butt;stroke-linejoin:miter;stroke-miterlimit:0;stroke-opacity:1;stroke-dasharray:none;marker-start:url(#Arrow1Mstart-41);marker-end:url(#Arrow1Mend-01)" />
      </g>
    </g>
  </g>
</svg>
